v 0.318599 0.23734 0.0158154
v 0.325071 0.237001 0.00750005
v 0.364323 0.234944 0.00750005
v 0.370795 0.234605 0.0158154
v 0.325071 0.237001 1.27127
v 0.318599 0.23734 1.26296
v 0.370795 0.234605 1.26296
v 0.364323 0.234944 1.27127
v 0.357631 0.215267 1.19627
v 0.357646 0.210218 0.343696
v 0.329008 0.20907 0.349387
v 0.00514589 0.250946 0.262327
v 0.00514589 0.193946 0.262327
v 0.329669 0.216733 1.19627
v 0.367845 0.234759 1.23103
v 0.321548 0.237186 1.23103
v 0.357631 0.215267 0.0825
v 0.329669 0.216733 0.0825
v 0.321548 0.237186 0.0477463
v 0.367845 0.234759 0.0477463
