# Wavefront OBJ file written 2021-08-04T11:57:12
o Fig_no_props_edgeMesh

# points : 1640
# lines  : 1660

# <points count="1640">
v 0.319731 0.237281 0.00750005
v 0.369663 0.234664 0.00750005
v 0.319731 0.237281 1.27127
v 0.369663 0.234664 1.27127
v 0.00514589 0.252446 0.262327
v 0.00514589 0.190273 0.262327
v 1.20406 0.375254 0.0942735
v 1.20796 0.374354 0.0942735
v 0.356584 0.195295 1.19627
v 0.328623 0.19676 1.19627
v 0.367569 0.194719 1.27127
v 0.358678 0.23524 1.19627
v 0.330716 0.236705 1.19627
v 0.317638 0.197336 1.27127
v 0.328623 0.19676 0.0825
v 0.356584 0.195295 0.0825
v 0.367569 0.194719 0.00750005
v 0.317638 0.197336 0.00750005
v 0.330716 0.236705 0.0825
v 0.358678 0.23524 0.0825
v 0.00514589 0.250946 0.242327
v 0.00514589 0.193946 0.242327
v 0.318599 0.23734 0.0158154
v 0.325071 0.237001 0.00750005
v 0.364323 0.234944 0.00750005
v 0.370795 0.234605 0.0158154
v 0.325071 0.237001 1.27127
v 0.318599 0.23734 1.26296
v 0.370795 0.234605 1.26296
v 0.364323 0.234944 1.27127
v 0.357631 0.215267 1.19627
v 0.357646 0.210218 0.343696
v 0.329008 0.20907 0.349387
v 0.00514589 0.250946 0.262327
v 0.00514589 0.193946 0.262327
v 0.329669 0.216733 1.19627
v 0.367845 0.234759 1.23103
v 0.321548 0.237186 1.23103
v 0.357631 0.215267 0.0825
v 0.329669 0.216733 0.0825
v 0.321548 0.237186 0.0477463
v 0.367845 0.234759 0.0477463
v 0.32965 0.216 1.15727
v 0.329863 0.213569 1.15727
v 0.330494 0.211212 1.15727
v 0.331526 0.209 1.15727
v 0.332925 0.207001 1.15727
v 0.334651 0.205275 1.15727
v 0.33665 0.203876 1.15727
v 0.338862 0.202844 1.15727
v 0.341219 0.202213 1.15727
v 0.34365 0.202 1.15727
v 0.346081 0.202213 1.15727
v 0.348438 0.202844 1.15727
v 0.35065 0.203876 1.15727
v 0.352649 0.205275 1.15727
v 0.354375 0.207001 1.15727
v 0.355774 0.209 1.15727
v 0.356806 0.211212 1.15727
v 0.357437 0.213569 1.15727
v 0.35765 0.216 1.15727
v 0.357646 0.215756 0.343657
v 0.357481 0.217899 0.343676
v 0.357411 0.218307 0.343688
v 0.356938 0.22015 0.343771
v 0.356791 0.220573 0.343798
v 0.356028 0.222289 0.34394
v 0.3558 0.222703 0.343983
v 0.354772 0.224253 0.344179
v 0.354468 0.224638 0.344237
v 0.353267 0.225926 0.344471
v 0.35283 0.226322 0.344557
v 0.35154 0.227318 0.344811
v 0.350934 0.227709 0.34493
v 0.349618 0.228418 0.345192
v 0.348833 0.228759 0.345348
v 0.347386 0.229247 0.345638
v 0.346586 0.229444 0.345799
v 0.345237 0.229665 0.34607
v 0.344256 0.229742 0.346267
v 0.343001 0.229741 0.34652
v 0.341909 0.229648 0.346741
v 0.340875 0.229479 0.346951
v 0.339612 0.229162 0.347211
v 0.33885 0.228908 0.347367
v 0.337427 0.228299 0.347651
v 0.336811 0.227974 0.347772
v 0.335418 0.227082 0.348044
v 0.334925 0.226708 0.348139
v 0.333639 0.225547 0.348387
v 0.33332 0.225209 0.348449
v 0.332143 0.223736 0.348679
v 0.331894 0.223365 0.348728
v 0.330971 0.2217 0.348914
v 0.33083 0.22139 0.348943
v 0.330155 0.219497 0.349087
v 0.330098 0.219284 0.3491
v 0.329699 0.216976 0.349198
v 0.329348 0.212959 0.349298
v 0.329182 0.211064 0.349342
v 0.336105 0.20396 0.348083
v 0.334354 0.205283 0.348413
v 0.353745 0.20606 0.344514
v 0.353002 0.205342 0.34467
v 0.352897 0.205248 0.344692
v 0.351264 0.20401 0.345031
v 0.35098 0.203831 0.34509
v 0.349302 0.202949 0.345435
v 0.348851 0.202759 0.345528
v 0.346975 0.202157 0.345912
v 0.346571 0.202065 0.345994
v 0.344708 0.201796 0.346373
v 0.344206 0.201767 0.346475
v 0.342309 0.20182 0.346859
v 0.341825 0.201875 0.346956
v 0.340153 0.202199 0.347292
v 0.339496 0.202385 0.347423
v 0.338053 0.202921 0.347707
v 0.337288 0.203283 0.347856
v 0.357646 0.210648 0.801274
v 0.354357 0.20674 0.801274
v 0.357644 0.215973 0.801274
v 0.357646 0.215756 0.801274
v 0.329654 0.216244 0.801274
v 0.329664 0.216462 0.801274
v 0.329987 0.218829 0.801274
v 0.330709 0.221106 0.801274
v 0.331807 0.223228 0.801274
v 0.33325 0.225133 0.801274
v 0.334996 0.226764 0.801274
v 0.336994 0.228074 0.801274
v 0.339185 0.229026 0.801274
v 0.341507 0.229591 0.801274
v 0.34389 0.229754 0.801274
v 0.346267 0.229508 0.801274
v 0.348567 0.228862 0.801274
v 0.350724 0.227835 0.801274
v 0.352675 0.226455 0.801274
v 0.354363 0.224764 0.801274
v 0.355738 0.222811 0.801274
v 0.356762 0.220652 0.801274
v 0.357403 0.21835 0.801274
v 0.349989 0.203275 0.801274
v 0.347914 0.202422 0.801274
v 0.339087 0.202519 0.801274
v 0.337032 0.203416 0.801274
v 0.34126 0.201961 0.801274
v 0.335147 0.204631 0.801274
v 0.334283 0.205347 0.801274
v 0.3536 0.205911 0.801274
v 0.3519 0.204448 0.801274
v 0.345731 0.201912 0.801274
v 0.343493 0.201757 0.801274
v 0.329426 0.209716 0.801274
v 0.00514589 0.271712 0.97586
v 0.00514589 0.263205 0.991825
v 0.00514589 0.277952 0.962087
v 0.00514589 0.177729 1.02366
v 0.00514589 0.173694 1.0174
v 0.00514589 0.192011 1.03628
v 0.00514589 0.189698 1.03504
v 0.214714 0.203671 0.353108
v 0.201624 0.202923 0.350422
v 0.178277 0.201491 0.34317
v 0.158195 0.200148 0.333925
v 0.317969 0.208613 0.351276
v 0.0851691 0.195306 0.27951
v 0.0834288 0.195227 0.278314
v 0.0834094 0.1912 0.278265
v 0.0851996 0.191279 0.279494
v 0.0982177 0.191944 0.289399
v 0.125412 0.193723 0.311893
v 0.00514589 0.156165 0.733218
v 0.00514589 0.162869 0.622327
v 0.318104 0.204613 0.351274
v 0.140761 0.198916 0.32331
v 0.125359 0.197804 0.311944
v 0.0981801 0.195989 0.289427
v 0.228853 0.204441 0.355067
v 0.244117 0.205232 0.356221
v 0.260583 0.206044 0.356496
v 0.278329 0.206878 0.355814
v 0.297432 0.207735 0.354099
v 0.228958 0.200372 0.355022
v 0.244229 0.201179 0.356188
v 0.278453 0.202857 0.3558
v 0.297562 0.203726 0.354093
v 0.201716 0.198826 0.350359
v 0.214813 0.199587 0.353054
v 0.178358 0.197379 0.343098
v 0.158266 0.19604 0.333856
v 0.140823 0.194819 0.323249
v 0.00514589 0.200697 1.03891
v 0.00514589 0.197556 1.03829
v 0.00514589 0.205423 1.03925
v 0.00514589 0.196214 1.03792
v 0.00514589 0.193759 1.03706
v 0.00514589 0.187824 1.03383
v 0.00514589 0.185502 1.03207
v 0.00514589 0.183378 1.03018
v 0.00514589 0.181409 1.02817
v 0.00514589 0.179003 1.02534
v 0.00514589 0.171199 1.01266
v 0.00514589 0.167777 1.0048
v 0.00514589 0.164736 0.996013
v 0.00514589 0.162447 0.987839
v 0.00514589 0.158102 0.966183
v 0.00514589 0.154588 0.935418
v 0.00514589 0.153416 0.917168
v 0.00514589 0.153365 0.916132
v 0.00514589 0.152378 0.844671
v 0.00514589 0.1524 0.842893
v 0.00514589 0.152473 0.889079
v 0.260701 0.202008 0.356472
v 0.00514589 0.152662 0.827387
v 0.00514589 0.293954 0.622327
v 0.00514589 0.300754 0.668503
v 0.00514589 0.304132 0.697797
v 0.00514589 0.306077 0.719047
v 0.00514589 0.308638 0.765709
v 0.00514589 0.308553 0.807933
v 0.00514589 0.302857 0.871156
v 0.00514589 0.297588 0.899447
v 0.00514589 0.304845 0.85671
v 0.00514589 0.306527 0.840917
v 0.00514589 0.280454 0.955977
v 0.00514589 0.252199 1.00849
v 0.00514589 0.230427 1.0303
v 0.00514589 0.227199 1.03241
v 0.00514589 0.222916 1.03479
v 0.00514589 0.247573 1.0143
v 0.00514589 0.247031 1.01494
v 0.00514589 0.23919 1.02316
v 0.00514589 0.231944 1.02921
v 0.00514589 0.289568 0.929976
v 0.00514589 0.217796 1.03699
v 0.00514589 0.216187 1.03753
v 0.00514589 0.213653 1.03824
v 0.00514589 0.210198 1.03891
v 0.0532339 0.199933 0.264389
v 0.0546929 0.199257 0.26475
v 0.0599777 0.197306 0.266317
v 0.0606072 0.19712 0.266532
v 0.0633696 0.196412 0.267545
v 0.0672653 0.195686 0.26917
v 0.0756077 0.195045 0.273421
v 0.0717208 0.194786 0.271311
v 0.0454244 0.204869 0.262971
v 0.0457138 0.204635 0.263009
v 0.0495191 0.201966 0.263609
v 0.0377217 0.214663 0.262367
v 0.0395517 0.211323 0.262443
v 0.0421005 0.208022 0.262618
v 0.0375519 0.215046 0.262362
v 0.0365068 0.217906 0.262339
v 0.0364036 0.218258 0.262337
v 0.035631 0.221615 0.262327
v 0.0345406 0.228441 0.262327
v 0.0198851 0.248575 0.262327
v 0.0181945 0.249458 0.262327
v 0.0224526 0.246951 0.262327
v 0.024656 0.245234 0.262327
v 0.00514589 0.268236 0.409828
v 0.00514589 0.284026 0.557327
v 0.0339196 0.230932 0.262327
v 0.0331577 0.23318 0.262327
v 0.0320523 0.23571 0.262327
v 0.0310076 0.237649 0.262327
v 0.0260368 0.243974 0.262327
v 0.0278013 0.242109 0.262327
v 0.0281323 0.241721 0.262327
v 0.0294004 0.240101 0.262327
v 0.01358 0.251236 0.262327
v 0.0102569 0.252008 0.262327
v 0.00868886 0.252236 0.262327
v 0.0152177 0.250704 0.262327
v 0.00514589 0.192446 0.262327
v 0.00514589 0.19227 0.262327
v 0.0231695 0.190273 0.262327
v 0.0410564 0.190284 0.262536
v 0.0493938 0.190339 0.263584
v 0.0572362 0.19044 0.265446
v 0.0646609 0.190585 0.268045
v 0.0717449 0.190774 0.271304
v 0.00514589 0.173948 0.473059
v 0.00514587 0.284852 0.564776
v 0.00514589 0.286344 0.576505
v 0.00514691 0.293724 0.620952
v 0.00514608 0.293324 0.618613
v 0.00514589 0.292142 0.611883
v 0.00514589 0.29103 0.605614
v 0.747338 0.221782 0.264763
v 0.950928 0.229914 0.223511
v 0.950788 0.233911 0.223511
v 0.747198 0.225779 0.264763
v 0.543748 0.213649 0.306015
v 0.543608 0.217646 0.306015
v 1.15438 0.242043 0.182259
v 1.15452 0.238047 0.182259
v 1.16849 0.241971 0.176078
v 1.17149 0.24388 0.173856
v 1.17893 0.252136 0.166201
v 1.18012 0.254696 0.164347
v 1.15708 0.238257 0.181622
v 1.17591 0.254881 0.164988
v 1.17532 0.253682 0.165983
v 1.17634 0.25591 0.164207
v 1.17707 0.25833 0.16262
v 1.177 0.258029 0.162798
v 1.17454 0.246443 0.171178
v 1.17479 0.246688 0.170938
v 1.17867 0.251678 0.166557
v 1.17719 0.249441 0.168404
v 1.16241 0.239391 0.179579
v 1.16356 0.239769 0.179011
v 1.16536 0.240457 0.178035
v 1.16771 0.241554 0.176597
v 1.15913 0.23858 0.180948
v 1.15965 0.238683 0.180757
v 1.15666 0.242216 0.181662
v 1.15891 0.242557 0.180807
v 1.16042 0.242885 0.180091
v 1.16131 0.24312 0.179613
v 1.16386 0.24397 0.178025
v 1.1751 0.253286 0.16633
v 1.17386 0.251375 0.168157
v 1.17306 0.250372 0.169216
v 1.17164 0.248855 0.170958
v 1.17052 0.247847 0.172218
v 1.16907 0.24674 0.173705
v 1.16752 0.24574 0.175152
v 1.16653 0.245187 0.176001
v 1.16587 0.244851 0.176538
v 1.18088 0.257093 0.162818
v 1.18097 0.25743 0.16262
v 1.20867 0.374191 0.165364
v 1.20843 0.374245 0.166132
v 1.20923 0.374061 0.162848
v 1.20822 0.374295 0.166731
v 1.20782 0.374385 0.167609
v 1.21036 0.373801 0.151328
v 1.20969 0.373954 0.159812
v 1.20931 0.374042 0.11673
v 1.2103 0.373814 0.139979
v 1.20275 0.375557 0.11597
v 1.20164 0.375813 0.150332
v 1.20172 0.375795 0.139979
v 1.20419 0.375225 0.167589
v 1.20381 0.375313 0.166731
v 1.20359 0.375364 0.166117
v 1.20336 0.375417 0.165364
v 1.2028 0.375544 0.162914
v 1.20233 0.375654 0.159813
v 1.20176 0.375785 0.153475
v 1.20207 0.375715 0.130134
v 0.32965 0.216 1.07227
v 0.329863 0.213569 1.07227
v 0.330494 0.211212 1.07227
v 0.331526 0.209 1.07227
v 0.332925 0.207001 1.07227
v 0.334651 0.205275 1.07227
v 0.33665 0.203876 1.07227
v 0.338862 0.202844 1.07227
v 0.341219 0.202213 1.07227
v 0.34365 0.202 1.07227
v 0.346081 0.202213 1.07227
v 0.348438 0.202844 1.07227
v 0.35065 0.203876 1.07227
v 0.352649 0.205275 1.07227
v 0.354375 0.207001 1.07227
v 0.355774 0.209 1.07227
v 0.356806 0.211212 1.07227
v 0.357437 0.213569 1.07227
v 0.35765 0.216 1.07227
v 0.352649 0.226725 1.14027
v 0.35065 0.228124 1.14027
v 0.348438 0.229156 1.14027
v 0.346081 0.229787 1.14027
v 0.34365 0.23 1.14027
v 0.341219 0.229787 1.14027
v 0.338862 0.229156 1.14027
v 0.33665 0.228124 1.14027
v 0.334651 0.226725 1.14027
v 0.332925 0.224999 1.14027
v 0.331526 0.223 1.14027
v 0.330494 0.220788 1.14027
v 0.329863 0.218431 1.14027
v 0.32965 0.216 1.14027
v 0.329863 0.213569 1.14027
v 0.330494 0.211212 1.14027
v 0.331526 0.209 1.14027
v 0.332925 0.207001 1.14027
v 0.334651 0.205275 1.14027
v 0.33665 0.203876 1.14027
v 0.338862 0.202844 1.14027
v 0.341219 0.202213 1.14027
v 0.34365 0.202 1.14027
v 0.346081 0.202213 1.14027
v 0.348438 0.202844 1.14027
v 0.35065 0.203876 1.14027
v 0.352649 0.205275 1.14027
v 0.354375 0.207001 1.14027
v 0.355774 0.209 1.14027
v 0.356806 0.211212 1.14027
v 0.357437 0.213569 1.14027
v 0.35765 0.216 1.14027
v 0.357437 0.218431 1.14027
v 0.356806 0.220788 1.14027
v 0.355774 0.223 1.14027
v 0.354375 0.224999 1.14027
v 0.334651 0.226725 1.07227
v 0.33665 0.228124 1.07227
v 0.338862 0.229156 1.07227
v 0.341219 0.229787 1.07227
v 0.34365 0.23 1.07227
v 0.346081 0.229787 1.07227
v 0.348438 0.229156 1.07227
v 0.35065 0.228124 1.07227
v 0.352649 0.226725 1.07227
v 0.354375 0.224999 1.07227
v 0.355774 0.223 1.07227
v 0.356806 0.220788 1.07227
v 0.357437 0.218431 1.07227
v 0.329863 0.218431 1.07227
v 0.330494 0.220788 1.07227
v 0.331526 0.223 1.07227
v 0.332925 0.224999 1.07227
v 0.34365 0.167 1.09227
v 0.341219 0.167 1.09249
v 0.338862 0.167 1.09312
v 0.33665 0.167 1.09415
v 0.334651 0.167 1.09555
v 0.332925 0.167 1.09727
v 0.331526 0.167 1.09927
v 0.330494 0.167 1.10149
v 0.329863 0.167 1.10384
v 0.32965 0.167 1.10627
v 0.329863 0.167 1.10871
v 0.330494 0.167 1.11106
v 0.331526 0.167 1.11327
v 0.332925 0.167 1.11527
v 0.334651 0.167 1.117
v 0.33665 0.167 1.1184
v 0.338862 0.167 1.11943
v 0.341219 0.167 1.12006
v 0.34365 0.167 1.12027
v 0.354375 0.167 1.09727
v 0.355774 0.167 1.09927
v 0.356806 0.167 1.10149
v 0.357437 0.167 1.10384
v 0.35765 0.167 1.10627
v 0.357437 0.167 1.10871
v 0.356806 0.167 1.11106
v 0.355774 0.167 1.11327
v 0.354375 0.167 1.11527
v 0.352649 0.167 1.117
v 0.35065 0.167 1.1184
v 0.348438 0.167 1.11943
v 0.346081 0.167 1.12006
v 0.346081 0.167 1.09249
v 0.348438 0.167 1.09312
v 0.35065 0.167 1.09415
v 0.352649 0.167 1.09555
v 0.34365 0 1.09977
v 0.342521 0 1.09987
v 0.342521 0.018 1.09987
v 0.34365 0.018 1.09977
v 0.341427 0 1.10017
v 0.341427 0.018 1.10017
v 0.3404 0 1.10064
v 0.3404 0.018 1.10064
v 0.339472 0 1.10129
v 0.339472 0.018 1.10129
v 0.338671 0 1.1021
v 0.338671 0.018 1.1021
v 0.338021 0 1.10302
v 0.338021 0.018 1.10302
v 0.337542 0 1.10405
v 0.337542 0.018 1.10405
v 0.337249 0 1.10514
v 0.337249 0.018 1.10514
v 0.33715 0 1.10627
v 0.33715 0.018 1.10627
v 0.337249 0 1.1074
v 0.337249 0.018 1.1074
v 0.337542 0 1.1085
v 0.337542 0.018 1.1085
v 0.338021 0 1.10952
v 0.338021 0.018 1.10952
v 0.338671 0 1.11045
v 0.338671 0.018 1.11045
v 0.339472 0 1.11125
v 0.339472 0.018 1.11125
v 0.3404 0 1.1119
v 0.3404 0.018 1.1119
v 0.341427 0 1.11238
v 0.341427 0.018 1.11238
v 0.342521 0 1.11267
v 0.342521 0.018 1.11267
v 0.34365 0 1.11277
v 0.34365 0.018 1.11277
v 0.347828 0.018 1.11125
v 0.34863 0.018 1.11045
v 0.349279 0.018 1.10952
v 0.349758 0.018 1.1085
v 0.350051 0.018 1.1074
v 0.35015 0.018 1.10627
v 0.350051 0.018 1.10514
v 0.349758 0.018 1.10405
v 0.349279 0.018 1.10302
v 0.34863 0.018 1.1021
v 0.347828 0.018 1.10129
v 0.3469 0.018 1.10064
v 0.345873 0.018 1.10017
v 0.344779 0.018 1.09987
v 0.344779 0.018 1.11267
v 0.345873 0.018 1.11238
v 0.3469 0.018 1.1119
v 0.3469 0 1.10064
v 0.347828 0 1.10129
v 0.349279 0 1.10302
v 0.349758 0 1.10405
v 0.34863 0 1.1021
v 0.350051 0 1.10514
v 0.35015 0 1.10627
v 0.350051 0 1.1074
v 0.349758 0 1.1085
v 0.349279 0 1.10952
v 0.344779 0 1.09987
v 0.345873 0 1.10017
v 0.34863 0 1.11045
v 0.347828 0 1.11125
v 0.3469 0 1.1119
v 0.344779 0 1.11267
v 0.345873 0 1.11238
v 0.35765 0.216 0.206387
v 0.357437 0.213569 0.206387
v 0.356806 0.211212 0.206387
v 0.355774 0.209 0.206387
v 0.354375 0.207001 0.206387
v 0.352649 0.205275 0.206387
v 0.35065 0.203876 0.206387
v 0.348438 0.202844 0.206387
v 0.346081 0.202213 0.206387
v 0.34365 0.202 0.206387
v 0.341219 0.202213 0.206387
v 0.338862 0.202844 0.206387
v 0.33665 0.203876 0.206387
v 0.334651 0.205275 0.206387
v 0.332925 0.207001 0.206387
v 0.331526 0.209 0.206387
v 0.330494 0.211212 0.206387
v 0.329863 0.213569 0.206387
v 0.32965 0.216 0.206387
v 0.334651 0.226725 0.138387
v 0.33665 0.228124 0.138387
v 0.338862 0.229156 0.138387
v 0.341219 0.229787 0.138387
v 0.34365 0.23 0.138387
v 0.346081 0.229787 0.138387
v 0.348438 0.229156 0.138387
v 0.35065 0.228124 0.138387
v 0.352649 0.226725 0.138387
v 0.354375 0.224999 0.138387
v 0.355774 0.223 0.138387
v 0.356806 0.220788 0.138387
v 0.357437 0.218431 0.138387
v 0.35765 0.216 0.138387
v 0.357437 0.213569 0.138387
v 0.356806 0.211212 0.138387
v 0.355774 0.209 0.138387
v 0.354375 0.207001 0.138387
v 0.352649 0.205275 0.138387
v 0.35065 0.203876 0.138387
v 0.348438 0.202844 0.138387
v 0.346081 0.202213 0.138387
v 0.34365 0.202 0.138387
v 0.341219 0.202213 0.138387
v 0.338862 0.202844 0.138387
v 0.33665 0.203876 0.138387
v 0.334651 0.205275 0.138387
v 0.332925 0.207001 0.138387
v 0.331526 0.209 0.138387
v 0.330494 0.211212 0.138387
v 0.329863 0.213569 0.138387
v 0.32965 0.216 0.138387
v 0.329863 0.218431 0.138387
v 0.330494 0.220788 0.138387
v 0.331526 0.223 0.138387
v 0.332925 0.224999 0.138387
v 0.329863 0.218431 0.206387
v 0.330494 0.220788 0.206387
v 0.331526 0.223 0.206387
v 0.332925 0.224999 0.206387
v 0.334651 0.226725 0.206387
v 0.33665 0.228124 0.206387
v 0.338862 0.229156 0.206387
v 0.341219 0.229787 0.206387
v 0.34365 0.23 0.206387
v 0.346081 0.229787 0.206387
v 0.348438 0.229156 0.206387
v 0.35065 0.228124 0.206387
v 0.352649 0.226725 0.206387
v 0.354375 0.224999 0.206387
v 0.355774 0.223 0.206387
v 0.356806 0.220788 0.206387
v 0.357437 0.218431 0.206387
v 0.34365 0.167 0.158387
v 0.341219 0.167 0.158599
v 0.338862 0.167 0.159231
v 0.33665 0.167 0.160262
v 0.334651 0.167 0.161662
v 0.332925 0.167 0.163388
v 0.331526 0.167 0.165387
v 0.330494 0.167 0.167599
v 0.329863 0.167 0.169956
v 0.32965 0.167 0.172387
v 0.329863 0.167 0.174818
v 0.330494 0.167 0.177175
v 0.331526 0.167 0.179387
v 0.332925 0.167 0.181386
v 0.334651 0.167 0.183111
v 0.33665 0.167 0.184511
v 0.338862 0.167 0.185542
v 0.341219 0.167 0.186174
v 0.34365 0.167 0.186387
v 0.35065 0.167 0.184511
v 0.348438 0.167 0.185542
v 0.346081 0.167 0.186174
v 0.346081 0.167 0.158599
v 0.348438 0.167 0.159231
v 0.35065 0.167 0.160262
v 0.352649 0.167 0.161662
v 0.354375 0.167 0.163388
v 0.355774 0.167 0.165387
v 0.356806 0.167 0.167599
v 0.357437 0.167 0.169956
v 0.35765 0.167 0.172387
v 0.357437 0.167 0.174818
v 0.356806 0.167 0.177175
v 0.355774 0.167 0.179387
v 0.354375 0.167 0.181386
v 0.352649 0.167 0.183111
v 0.34365 0 0.165887
v 0.342521 0 0.165985
v 0.342521 0.018 0.165985
v 0.34365 0.018 0.165887
v 0.341427 0 0.166279
v 0.341427 0.018 0.166279
v 0.3404 0 0.166758
v 0.3404 0.018 0.166758
v 0.339472 0 0.167407
v 0.339472 0.018 0.167407
v 0.338671 0 0.168209
v 0.338671 0.018 0.168209
v 0.338021 0 0.169137
v 0.338021 0.018 0.169137
v 0.337542 0 0.170164
v 0.337542 0.018 0.170164
v 0.337249 0 0.171258
v 0.337249 0.018 0.171258
v 0.33715 0 0.172387
v 0.33715 0.018 0.172387
v 0.337249 0 0.173515
v 0.337249 0.018 0.173515
v 0.337542 0 0.17461
v 0.337542 0.018 0.17461
v 0.338021 0 0.175637
v 0.338021 0.018 0.175637
v 0.338671 0 0.176565
v 0.338671 0.018 0.176565
v 0.339472 0 0.177366
v 0.339472 0.018 0.177366
v 0.3404 0 0.178016
v 0.3404 0.018 0.178016
v 0.341427 0 0.178495
v 0.341427 0.018 0.178495
v 0.342521 0 0.178788
v 0.342521 0.018 0.178788
v 0.34365 0 0.178887
v 0.34365 0.018 0.178887
v 0.3469 0.018 0.166758
v 0.345873 0.018 0.166279
v 0.344779 0.018 0.165985
v 0.344779 0.018 0.178788
v 0.345873 0.018 0.178495
v 0.3469 0.018 0.178016
v 0.347828 0.018 0.177366
v 0.34863 0.018 0.176565
v 0.349279 0.018 0.175637
v 0.349758 0.018 0.17461
v 0.350051 0.018 0.173515
v 0.35015 0.018 0.172387
v 0.350051 0.018 0.171258
v 0.349758 0.018 0.170164
v 0.349279 0.018 0.169137
v 0.34863 0.018 0.168209
v 0.347828 0.018 0.167407
v 0.344779 0 0.165985
v 0.345873 0 0.166279
v 0.3469 0 0.166758
v 0.347828 0 0.167407
v 0.344779 0 0.178788
v 0.345873 0 0.178495
v 0.34863 0 0.168209
v 0.347828 0 0.177366
v 0.3469 0 0.178016
v 0.349279 0 0.169137
v 0.349758 0 0.170164
v 0.350051 0 0.171258
v 0.349758 0 0.17461
v 0.349279 0 0.175637
v 0.350051 0 0.173515
v 0.35015 0 0.172387
v 0.34863 0 0.176565
v 0.334651 0.226725 1.15727
v 0.33665 0.228124 1.15727
v 0.338862 0.229156 1.15727
v 0.341219 0.229787 1.15727
v 0.34365 0.23 1.15727
v 0.346081 0.229787 1.15727
v 0.348438 0.229156 1.15727
v 0.35065 0.228124 1.15727
v 0.352649 0.226725 1.15727
v 0.354375 0.224999 1.15727
v 0.355774 0.223 1.15727
v 0.356806 0.220788 1.15727
v 0.357437 0.218431 1.15727
v 0.329863 0.218431 1.15727
v 0.330494 0.220788 1.15727
v 0.331526 0.223 1.15727
v 0.332925 0.224999 1.15727
v 0.370565 0.194562 1.24927
v 0.314642 0.197493 1.24927
v 0.37238 0.234522 1.25936
v 0.373709 0.234452 1.2544
v 0.37021 0.234636 1.23452
v 0.37238 0.234522 1.23918
v 0.373709 0.234452 1.24415
v 0.374157 0.234429 1.24927
v 0.319184 0.23731 1.23452
v 0.317014 0.237423 1.25936
v 0.315685 0.237493 1.2544
v 0.315237 0.237516 1.24927
v 0.315685 0.237493 1.24415
v 0.317014 0.237423 1.23918
v 0.325761 0.236965 1.27187
v 0.363633 0.23498 1.27187
v 0.359427 0.235201 1.27482
v 0.354773 0.235445 1.27699
v 0.329967 0.236744 1.27482
v 0.334621 0.236501 1.27699
v 0.339581 0.236241 1.27832
v 0.349813 0.235704 1.27832
v 0.344697 0.235973 1.27877
v 0.375593 0.270403 1.24415
v 0.37604 0.270379 1.24927
v 0.374264 0.270472 1.23918
v 0.372094 0.270586 1.23452
v 0.369148 0.270741 1.23031
v 0.365517 0.270931 1.22668
v 0.361311 0.271151 1.22373
v 0.356657 0.271395 1.22155
v 0.351697 0.271655 1.22022
v 0.346581 0.271923 1.21977
v 0.341465 0.272191 1.22022
v 0.336505 0.272451 1.22155
v 0.331851 0.272695 1.22373
v 0.327645 0.272916 1.22668
v 0.324014 0.273106 1.23031
v 0.321068 0.27326 1.23452
v 0.318898 0.273374 1.23918
v 0.317569 0.273444 1.24415
v 0.317121 0.273467 1.24927
v 0.375593 0.270403 1.2544
v 0.317569 0.273444 1.2544
v 0.318898 0.273374 1.25936
v 0.351697 0.271655 1.27832
v 0.356657 0.271395 1.27699
v 0.321068 0.27326 1.26402
v 0.324014 0.273106 1.26824
v 0.331851 0.272695 1.27482
v 0.336505 0.272451 1.27699
v 0.341465 0.272191 1.27832
v 0.365517 0.270931 1.27187
v 0.369148 0.270741 1.26824
v 0.327645 0.272916 1.27187
v 0.372094 0.270586 1.26402
v 0.374264 0.270472 1.25936
v 0.346581 0.271923 1.27877
v 0.361311 0.271151 1.27482
v 0.35765 0.216 0.1215
v 0.357437 0.213569 0.1215
v 0.356806 0.211212 0.1215
v 0.355774 0.209 0.1215
v 0.354375 0.207001 0.1215
v 0.352649 0.205275 0.1215
v 0.35065 0.203876 0.1215
v 0.348438 0.202844 0.1215
v 0.346081 0.202213 0.1215
v 0.34365 0.202 0.1215
v 0.341219 0.202213 0.1215
v 0.338862 0.202844 0.1215
v 0.33665 0.203876 0.1215
v 0.334651 0.205275 0.1215
v 0.332925 0.207001 0.1215
v 0.331526 0.209 0.1215
v 0.330494 0.211212 0.1215
v 0.329863 0.213569 0.1215
v 0.32965 0.216 0.1215
v 0.357437 0.218431 0.1215
v 0.356806 0.220788 0.1215
v 0.355774 0.223 0.1215
v 0.354375 0.224999 0.1215
v 0.352649 0.226725 0.1215
v 0.35065 0.228124 0.1215
v 0.348438 0.229156 0.1215
v 0.346081 0.229787 0.1215
v 0.34365 0.23 0.1215
v 0.341219 0.229787 0.1215
v 0.338862 0.229156 0.1215
v 0.33665 0.228124 0.1215
v 0.334651 0.226725 0.1215
v 0.332925 0.224999 0.1215
v 0.331526 0.223 0.1215
v 0.330494 0.220788 0.1215
v 0.329863 0.218431 0.1215
v 0.370565 0.194562 0.0295
v 0.314642 0.197493 0.0295
v 0.363633 0.23498 0.00690174
v 0.325761 0.236965 0.00690174
v 0.329967 0.236744 0.00395226
v 0.334621 0.236501 0.00177908
v 0.359427 0.235201 0.00395226
v 0.354773 0.235445 0.00177908
v 0.349813 0.235704 0.000448227
v 0.339581 0.236241 0.000448227
v 0.344697 0.235973 0
v 0.317014 0.237423 0.0194104
v 0.315685 0.237493 0.0243773
v 0.319184 0.23731 0.04425
v 0.317014 0.237423 0.0395896
v 0.315685 0.237493 0.0346227
v 0.315237 0.237516 0.0295
v 0.374157 0.234429 0.0295
v 0.373709 0.234452 0.0243773
v 0.375593 0.270403 0.0243773
v 0.37604 0.270379 0.0295
v 0.37238 0.234522 0.0194104
v 0.374264 0.270472 0.0194104
v 0.372094 0.270586 0.01475
v 0.369148 0.270741 0.0105377
v 0.365517 0.270931 0.00690174
v 0.361311 0.271151 0.00395226
v 0.356657 0.271395 0.00177908
v 0.351697 0.271655 0.000448227
v 0.346581 0.271923 0
v 0.341465 0.272191 0.000448227
v 0.336505 0.272451 0.00177908
v 0.331851 0.272695 0.00395226
v 0.327645 0.272916 0.00690174
v 0.324014 0.273106 0.0105377
v 0.321068 0.27326 0.01475
v 0.318898 0.273374 0.0194104
v 0.317569 0.273444 0.0243773
v 0.317121 0.273467 0.0295
v 0.317569 0.273444 0.0346227
v 0.365517 0.270931 0.0520983
v 0.369148 0.270741 0.0484623
v 0.372094 0.270586 0.04425
v 0.356657 0.271395 0.0572209
v 0.361311 0.271151 0.0550478
v 0.374264 0.270472 0.0395896
v 0.375593 0.270403 0.0346227
v 0.318898 0.273374 0.0395896
v 0.346581 0.271923 0.059
v 0.351697 0.271655 0.0585519
v 0.327645 0.272916 0.0520983
v 0.331851 0.272695 0.0550478
v 0.336505 0.272451 0.0572209
v 0.324014 0.273106 0.0484623
v 0.321068 0.27326 0.04425
v 0.341465 0.272191 0.0585519
v 0.37021 0.234636 0.04425
v 0.373709 0.234452 0.0346227
v 0.37238 0.234522 0.0395896
v 0.0100949 0.250513 0.242327
v 0.0148935 0.249227 0.242327
v 0.0193959 0.247127 0.242327
v 0.0234653 0.244278 0.242327
v 0.0269782 0.240765 0.242327
v 0.0298276 0.236696 0.242327
v 0.0319271 0.232193 0.242327
v 0.0332129 0.227395 0.242327
v 0.0336459 0.222446 0.242327
v 0.0332129 0.217497 0.242327
v 0.0319271 0.212698 0.242327
v 0.0298276 0.208196 0.242327
v 0.0269782 0.204126 0.242327
v 0.0234653 0.200613 0.242327
v 0.0193959 0.197764 0.242327
v 0.0148935 0.195664 0.242327
v 0.0100949 0.194379 0.242327
v 0.319184 0.23731 0.01475
v 0.322129 0.237155 0.0105377
v 0.367264 0.23479 0.0105377
v 0.37021 0.234636 0.01475
v 0.355646 0.215756 0.138387
v 0.355464 0.213672 0.138387
v 0.355464 0.213672 0.1215
v 0.355646 0.215756 0.1215
v 0.354922 0.211652 0.138387
v 0.354922 0.211652 0.1215
v 0.354038 0.209756 0.138387
v 0.354038 0.209756 0.1215
v 0.352838 0.208042 0.138387
v 0.352838 0.208042 0.1215
v 0.351359 0.206563 0.138387
v 0.351359 0.206563 0.1215
v 0.349646 0.205363 0.138387
v 0.349646 0.205363 0.1215
v 0.34775 0.204479 0.138387
v 0.34775 0.204479 0.1215
v 0.34573 0.203938 0.138387
v 0.34573 0.203938 0.1215
v 0.343646 0.203756 0.138387
v 0.343646 0.203756 0.1215
v 0.341562 0.203938 0.138387
v 0.341562 0.203938 0.1215
v 0.339542 0.204479 0.138387
v 0.339542 0.204479 0.1215
v 0.337646 0.205363 0.138387
v 0.337646 0.205363 0.1215
v 0.335932 0.206563 0.138387
v 0.335932 0.206563 0.1215
v 0.334453 0.208042 0.138387
v 0.334453 0.208042 0.1215
v 0.333254 0.209756 0.138387
v 0.333254 0.209756 0.1215
v 0.33237 0.211652 0.138387
v 0.33237 0.211652 0.1215
v 0.331828 0.213672 0.138387
v 0.331828 0.213672 0.1215
v 0.331646 0.215756 0.138387
v 0.331646 0.215756 0.1215
v 0.322129 0.237155 1.26824
v 0.319184 0.23731 1.26402
v 0.37021 0.234636 1.26402
v 0.367264 0.23479 1.26824
v 0.329863 0.213569 1.19627
v 0.32965 0.216 1.19627
v 0.330494 0.211212 1.19627
v 0.331526 0.209 1.19627
v 0.332925 0.207001 1.19627
v 0.334651 0.205275 1.19627
v 0.33665 0.203876 1.19627
v 0.338862 0.202844 1.19627
v 0.341219 0.202213 1.19627
v 0.34365 0.202 1.19627
v 0.346081 0.202213 1.19627
v 0.348438 0.202844 1.19627
v 0.35065 0.203876 1.19627
v 0.352649 0.205275 1.19627
v 0.354375 0.207001 1.19627
v 0.355774 0.209 1.19627
v 0.356806 0.211212 1.19627
v 0.357437 0.213569 1.19627
v 0.35765 0.216 1.19627
v 0.33165 0.216 1.14027
v 0.331832 0.213916 1.14027
v 0.331832 0.213916 1.15727
v 0.33165 0.216 1.15727
v 0.332374 0.211896 1.14027
v 0.332374 0.211896 1.15727
v 0.333258 0.21 1.14027
v 0.333258 0.21 1.15727
v 0.334458 0.208286 1.14027
v 0.334458 0.208286 1.15727
v 0.335937 0.206807 1.14027
v 0.335937 0.206807 1.15727
v 0.33765 0.205608 1.14027
v 0.33765 0.205608 1.15727
v 0.339546 0.204724 1.14027
v 0.339546 0.204724 1.15727
v 0.341566 0.204182 1.14027
v 0.341566 0.204182 1.15727
v 0.34365 0.204 1.14027
v 0.34365 0.204 1.15727
v 0.345734 0.204182 1.14027
v 0.345734 0.204182 1.15727
v 0.347754 0.204724 1.14027
v 0.347754 0.204724 1.15727
v 0.34965 0.205608 1.14027
v 0.34965 0.205608 1.15727
v 0.351364 0.206807 1.14027
v 0.351364 0.206807 1.15727
v 0.352843 0.208286 1.14027
v 0.352843 0.208286 1.15727
v 0.354042 0.21 1.14027
v 0.354042 0.21 1.15727
v 0.354926 0.211896 1.14027
v 0.354926 0.211896 1.15727
v 0.355468 0.213916 1.14027
v 0.355468 0.213916 1.15727
v 0.35565 0.216 1.14027
v 0.35565 0.216 1.15727
v 0.34365 0.167 0.176387
v 0.342956 0.167 0.176326
v 0.342956 0.018 0.176326
v 0.34365 0.018 0.176387
v 0.342282 0.167 0.176146
v 0.342282 0.018 0.176146
v 0.34165 0.167 0.175851
v 0.34165 0.018 0.175851
v 0.341079 0.167 0.175451
v 0.341079 0.018 0.175451
v 0.340586 0.167 0.174958
v 0.340586 0.018 0.174958
v 0.340186 0.167 0.174387
v 0.340186 0.018 0.174387
v 0.339891 0.167 0.173755
v 0.339891 0.018 0.173755
v 0.339711 0.167 0.173081
v 0.339711 0.018 0.173081
v 0.33965 0.167 0.172387
v 0.33965 0.018 0.172387
v 0.339711 0.167 0.171692
v 0.339711 0.018 0.171692
v 0.339891 0.167 0.171019
v 0.339891 0.018 0.171019
v 0.340186 0.167 0.170387
v 0.340186 0.018 0.170387
v 0.340586 0.167 0.169816
v 0.340586 0.018 0.169816
v 0.341079 0.167 0.169323
v 0.341079 0.018 0.169323
v 0.34165 0.167 0.168923
v 0.34165 0.018 0.168923
v 0.342282 0.167 0.168628
v 0.342282 0.018 0.168628
v 0.342956 0.167 0.168448
v 0.342956 0.018 0.168448
v 0.34365 0.167 0.168387
v 0.34365 0.018 0.168387
v 0.35422 0.210082 0.34439
v 0.353974 0.209647 0.344443
v 0.331646 0.215756 0.206387
v 0.331647 0.215567 0.206387
v 0.331683 0.214818 0.348852
v 0.331646 0.215756 0.348852
v 0.331858 0.213507 0.206387
v 0.331858 0.213507 0.348829
v 0.331989 0.212908 0.348809
v 0.332421 0.211514 0.206387
v 0.332421 0.211514 0.348738
v 0.332601 0.211065 0.348707
v 0.333317 0.209647 0.206387
v 0.333317 0.209647 0.348582
v 0.33356 0.209255 0.348538
v 0.334521 0.207962 0.206387
v 0.334524 0.207959 0.348362
v 0.335885 0.206603 0.348108
v 0.335997 0.20651 0.206387
v 0.335997 0.206509 0.348087
v 0.337561 0.205413 0.347787
v 0.3377 0.205332 0.206387
v 0.337701 0.205332 0.34776
v 0.339134 0.204636 0.347479
v 0.339581 0.204465 0.206387
v 0.339581 0.204465 0.347391
v 0.341095 0.20403 0.347088
v 0.341583 0.203934 0.206387
v 0.341583 0.203934 0.34699
v 0.343018 0.203772 0.346701
v 0.343646 0.203756 0.206387
v 0.343646 0.203756 0.346574
v 0.345709 0.203934 0.206387
v 0.347711 0.204465 0.206387
v 0.34771 0.204465 0.345747
v 0.347032 0.204243 0.345886
v 0.345709 0.203934 0.346156
v 0.34499 0.203831 0.346302
v 0.349591 0.205332 0.206387
v 0.351295 0.20651 0.206387
v 0.351295 0.206509 0.345007
v 0.350537 0.205931 0.345165
v 0.349591 0.205332 0.34536
v 0.348914 0.204974 0.3455
v 0.352771 0.207962 0.206387
v 0.353975 0.209647 0.206387
v 0.353083 0.208344 0.344632
v 0.35277 0.207962 0.344698
v 0.351732 0.206889 0.344916
v 0.355433 0.213507 0.344121
v 0.355041 0.211994 0.344211
v 0.354871 0.211514 0.344248
v 0.354871 0.211514 0.206387
v 0.354324 0.21028 0.344368
v 0.355433 0.213507 0.206387
v 0.355644 0.215567 0.206387
v 0.355504 0.213916 0.344103
v 0.355646 0.215756 0.206387
v 0.355646 0.215756 0.344061
v 0.34365 0.167 1.11027
v 0.342956 0.167 1.11021
v 0.342956 0.018 1.11021
v 0.34365 0.018 1.11027
v 0.342282 0.167 1.11003
v 0.342282 0.018 1.11003
v 0.34165 0.167 1.10974
v 0.34165 0.018 1.10974
v 0.341079 0.167 1.10934
v 0.341079 0.018 1.10934
v 0.340586 0.167 1.10884
v 0.340586 0.018 1.10884
v 0.340186 0.167 1.10827
v 0.340186 0.018 1.10827
v 0.339891 0.167 1.10764
v 0.339891 0.018 1.10764
v 0.339711 0.167 1.10697
v 0.339711 0.018 1.10697
v 0.33965 0.167 1.10627
v 0.33965 0.018 1.10627
v 0.339711 0.167 1.10558
v 0.339711 0.018 1.10558
v 0.339891 0.167 1.10491
v 0.339891 0.018 1.10491
v 0.340186 0.167 1.10427
v 0.340186 0.018 1.10427
v 0.340586 0.167 1.1037
v 0.340586 0.018 1.1037
v 0.341079 0.167 1.10321
v 0.341079 0.018 1.10321
v 0.34165 0.167 1.10281
v 0.34165 0.018 1.10281
v 0.342282 0.167 1.10251
v 0.342282 0.018 1.10251
v 0.342956 0.167 1.10233
v 0.342956 0.018 1.10233
v 0.34365 0.167 1.10227
v 0.34365 0.018 1.10227
v 0.33165 0.216 0.801274
v 0.331832 0.213916 0.801274
v 0.331832 0.213916 1.07227
v 0.33165 0.216 1.07227
v 0.332374 0.211896 0.801274
v 0.332374 0.211896 1.07227
v 0.333258 0.21 0.801274
v 0.333258 0.21 1.07227
v 0.334458 0.208286 0.801274
v 0.334458 0.208286 1.07227
v 0.335937 0.206807 0.801274
v 0.335937 0.206807 1.07227
v 0.33765 0.205608 0.801274
v 0.33765 0.205608 1.07227
v 0.339546 0.204724 0.801274
v 0.339546 0.204724 1.07227
v 0.341566 0.204182 0.801274
v 0.341566 0.204182 1.07227
v 0.34365 0.204 0.801274
v 0.34365 0.204 1.07227
v 0.345734 0.204182 0.801274
v 0.345734 0.204182 1.07227
v 0.347754 0.204724 0.801274
v 0.347754 0.204724 1.07227
v 0.34965 0.205608 0.801274
v 0.34965 0.205608 1.07227
v 0.351364 0.206807 0.801274
v 0.351364 0.206807 1.07227
v 0.352843 0.208286 0.801274
v 0.352843 0.208286 1.07227
v 0.354042 0.21 0.801274
v 0.354042 0.21 1.07227
v 0.354926 0.211896 0.801274
v 0.354926 0.211896 1.07227
v 0.355468 0.213916 0.801274
v 0.355468 0.213916 1.07227
v 0.35565 0.216 0.801274
v 0.35565 0.216 1.07227
v 0.357646 0.212954 0.385811
v 0.357646 0.215756 0.416404
v 0.355578 0.217031 0.344066
v 0.355433 0.218004 0.344089
v 0.355211 0.218958 0.344127
v 0.354871 0.219998 0.344188
v 0.354537 0.220794 0.34425
v 0.353974 0.221865 0.344357
v 0.353599 0.222459 0.344428
v 0.35277 0.22355 0.344588
v 0.352433 0.223928 0.344654
v 0.351295 0.225002 0.344877
v 0.35102 0.225223 0.344931
v 0.349591 0.226179 0.345213
v 0.349344 0.226317 0.345262
v 0.34771 0.227046 0.345587
v 0.347414 0.227149 0.345646
v 0.345709 0.227577 0.345989
v 0.345558 0.227602 0.346019
v 0.343853 0.227754 0.346363
v 0.343646 0.227756 0.346405
v 0.342019 0.227645 0.346734
v 0.341583 0.227577 0.346823
v 0.340088 0.227216 0.347129
v 0.339581 0.227046 0.347232
v 0.338397 0.226547 0.347473
v 0.337701 0.22618 0.347613
v 0.336635 0.225495 0.347826
v 0.335997 0.225002 0.347952
v 0.335195 0.224275 0.348111
v 0.334522 0.22355 0.348244
v 0.333878 0.222727 0.348372
v 0.333317 0.221865 0.348484
v 0.332881 0.221058 0.348573
v 0.332421 0.219998 0.348669
v 0.332166 0.219252 0.348723
v 0.331858 0.218004 0.348792
v 0.331788 0.217599 0.348809
v 0.329033 0.209356 0.355232
v 0.329289 0.212283 0.397116
v 0.329699 0.216976 0.444826
v 0.35724 0.210173 0.778256
v 0.357646 0.210648 0.778076
v 0.356808 0.209654 0.778353
v 0.329845 0.218104 0.786201
v 0.329654 0.216244 0.788405
v 0.330715 0.221122 0.781446
v 0.3306 0.220838 0.781958
v 0.329998 0.218876 0.785125
v 0.333241 0.225122 0.772784
v 0.332578 0.224328 0.774735
v 0.331825 0.223263 0.777167
v 0.357397 0.218378 0.772518
v 0.357193 0.219288 0.771497
v 0.356751 0.220679 0.769793
v 0.357646 0.215756 0.775063
v 0.357608 0.216756 0.774155
v 0.330128 0.219405 0.466108
v 0.331015 0.221795 0.485672
v 0.329799 0.217823 0.452444
v 0.355255 0.223579 0.486227
v 0.355834 0.222645 0.478377
v 0.356801 0.220546 0.460457
v 0.356928 0.220183 0.457304
v 0.35743 0.218207 0.439713
v 0.357644 0.215951 0.418347
v 0.331832 0.218084 0.801274
v 0.355468 0.218084 0.801274
v 0.354926 0.220104 0.801274
v 0.354042 0.222 0.801274
v 0.352843 0.223713 0.801274
v 0.351364 0.225193 0.801274
v 0.34965 0.226392 0.801274
v 0.347754 0.227276 0.801274
v 0.345734 0.227818 0.801274
v 0.34365 0.228 0.801274
v 0.341566 0.227818 0.801274
v 0.339546 0.227276 0.801274
v 0.33765 0.226392 0.801274
v 0.335937 0.225193 0.801274
v 0.334458 0.223713 0.801274
v 0.333258 0.222 0.801274
v 0.332374 0.220104 0.801274
v 0.329435 0.209962 0.792851
v 0.329426 0.209716 0.792871
v 0.329488 0.211471 0.792316
v 0.329473 0.211043 0.792532
v 0.329606 0.214819 0.789776
v 0.329539 0.212956 0.791313
v 0.329462 0.210708 0.792668
v 0.329454 0.210476 0.792744
v 0.329443 0.210159 0.79282
v 0.329929 0.209264 0.79257
v 0.330196 0.209024 0.792378
v 0.33074 0.208534 0.791908
v 0.33236 0.207077 0.789807
v 0.332625 0.206839 0.789291
v 0.332859 0.206633 0.788764
v 0.333006 0.206492 0.788352
v 0.331097 0.208213 0.791544
v 0.331249 0.208076 0.791375
v 0.331681 0.207687 0.790848
v 0.33197 0.207425 0.790443
v 0.332052 0.207352 0.79032
v 0.357647 0.213303 0.776985
v 0.357646 0.212153 0.777675
v 0.357646 0.211011 0.778045
v 0.357646 0.211152 0.778021
v 0.357646 0.211522 0.777928
v 0.0100949 0.250513 0.262327
v 0.0100949 0.194379 0.262327
v 0.0148935 0.195664 0.262327
v 0.0193959 0.247127 0.262327
v 0.0148935 0.249227 0.262327
v 0.0234653 0.244278 0.262327
v 0.0193959 0.197764 0.262327
v 0.0234653 0.200613 0.262327
v 0.0269782 0.204126 0.262327
v 0.0298276 0.208196 0.262327
v 0.0319271 0.212698 0.262327
v 0.0332129 0.217497 0.262327
v 0.0336459 0.222446 0.262327
v 0.0332129 0.227395 0.262327
v 0.0319271 0.232193 0.262327
v 0.0298276 0.236696 0.262327
v 0.0269782 0.240765 0.262327
v 0.337064 0.203646 1.09392
v 0.336642 0.20388 1.09415
v 0.335407 0.204684 1.09496
v 0.334641 0.205284 1.09556
v 0.333791 0.20606 1.09633
v 0.341215 0.202213 1.09249
v 0.340406 0.202381 1.09265
v 0.33886 0.202845 1.09312
v 0.338732 0.202892 1.09317
v 0.344807 0.202048 1.09232
v 0.34365 0.202 1.09227
v 0.342094 0.202087 1.09236
v 0.348442 0.202846 1.09312
v 0.348247 0.202776 1.09305
v 0.346482 0.202289 1.09256
v 0.346084 0.202213 1.09249
v 0.34989 0.203467 1.09374
v 0.35066 0.203882 1.09415
v 0.351564 0.204451 1.09473
v 0.352659 0.205284 1.09556
v 0.353234 0.205795 1.09607
v 0.34965 0.226392 1.14027
v 0.351364 0.225193 1.14027
v 0.347754 0.227276 1.14027
v 0.345734 0.227818 1.14027
v 0.34365 0.228 1.14027
v 0.341566 0.227818 1.14027
v 0.339546 0.227276 1.14027
v 0.33765 0.226392 1.14027
v 0.335937 0.225193 1.14027
v 0.334458 0.223713 1.14027
v 0.333258 0.222 1.14027
v 0.332374 0.220104 1.14027
v 0.331832 0.218084 1.14027
v 0.355468 0.218084 1.14027
v 0.354926 0.220104 1.14027
v 0.354042 0.222 1.14027
v 0.352843 0.223713 1.14027
v 0.33765 0.226392 1.07227
v 0.335937 0.225193 1.07227
v 0.339546 0.227276 1.07227
v 0.341566 0.227818 1.07227
v 0.34365 0.228 1.07227
v 0.345734 0.227818 1.07227
v 0.347754 0.227276 1.07227
v 0.34965 0.226392 1.07227
v 0.351364 0.225193 1.07227
v 0.352843 0.223713 1.07227
v 0.354042 0.222 1.07227
v 0.354926 0.220104 1.07227
v 0.355468 0.218084 1.07227
v 0.331832 0.218084 1.07227
v 0.332374 0.220104 1.07227
v 0.333258 0.222 1.07227
v 0.334458 0.223713 1.07227
v 0.339054 0.202776 1.1195
v 0.338858 0.202846 1.11943
v 0.334641 0.205284 1.11699
v 0.334066 0.205795 1.11648
v 0.33741 0.203467 1.11881
v 0.33664 0.203882 1.11839
v 0.335737 0.204451 1.11782
v 0.34365 0.202 1.12027
v 0.342494 0.202048 1.12023
v 0.341217 0.202213 1.12006
v 0.340818 0.202289 1.11998
v 0.347114 0.167 1.10427
v 0.346714 0.167 1.1037
v 0.347409 0.167 1.10491
v 0.347589 0.167 1.10558
v 0.34765 0.167 1.10627
v 0.347589 0.167 1.10697
v 0.347409 0.167 1.10764
v 0.347114 0.167 1.10827
v 0.346714 0.167 1.10884
v 0.346221 0.167 1.10934
v 0.34565 0.167 1.10974
v 0.345018 0.167 1.11003
v 0.344345 0.167 1.11021
v 0.344345 0.167 1.10233
v 0.345018 0.167 1.10251
v 0.34565 0.167 1.10281
v 0.346221 0.167 1.10321
v 0.346714 0.018 1.10884
v 0.346221 0.018 1.10934
v 0.347114 0.018 1.10827
v 0.347409 0.018 1.10764
v 0.347589 0.018 1.10697
v 0.34765 0.018 1.10627
v 0.347589 0.018 1.10558
v 0.347409 0.018 1.10491
v 0.347114 0.018 1.10427
v 0.346714 0.018 1.1037
v 0.346221 0.018 1.10321
v 0.34565 0.018 1.10281
v 0.345018 0.018 1.10251
v 0.344345 0.018 1.10233
v 0.344345 0.018 1.11021
v 0.345018 0.018 1.11003
v 0.34565 0.018 1.10974
v 0.350236 0.203646 0.184741
v 0.350658 0.20388 0.184507
v 0.351893 0.204684 0.183703
v 0.35266 0.205284 0.183102
v 0.353509 0.20606 0.182327
v 0.346085 0.202213 0.186173
v 0.346895 0.202381 0.186006
v 0.34844 0.202845 0.185542
v 0.348568 0.202892 0.185494
v 0.342494 0.202048 0.186339
v 0.34365 0.202 0.186387
v 0.345206 0.202087 0.1863
v 0.338858 0.202846 0.185541
v 0.339054 0.202776 0.185611
v 0.340818 0.202289 0.186097
v 0.341217 0.202213 0.186174
v 0.33741 0.203467 0.184919
v 0.33664 0.203882 0.184505
v 0.335737 0.204451 0.183935
v 0.334641 0.205284 0.183103
v 0.334066 0.205795 0.182592
v 0.337646 0.226148 0.138387
v 0.335932 0.224948 0.138387
v 0.339542 0.227032 0.138387
v 0.341562 0.227573 0.138387
v 0.343646 0.227756 0.138387
v 0.34573 0.227573 0.138387
v 0.34775 0.227032 0.138387
v 0.349646 0.226148 0.138387
v 0.351359 0.224948 0.138387
v 0.352838 0.223469 0.138387
v 0.354038 0.221756 0.138387
v 0.354922 0.21986 0.138387
v 0.355464 0.217839 0.138387
v 0.331828 0.217839 0.138387
v 0.33237 0.21986 0.138387
v 0.333254 0.221756 0.138387
v 0.334453 0.223469 0.138387
v 0.331647 0.215944 0.206387
v 0.331858 0.218004 0.206387
v 0.332421 0.219997 0.206387
v 0.333317 0.221864 0.206387
v 0.334521 0.223549 0.206387
v 0.335997 0.225002 0.206387
v 0.3377 0.226179 0.206387
v 0.339581 0.227046 0.206387
v 0.341583 0.227577 0.206387
v 0.343646 0.227756 0.206387
v 0.345709 0.227577 0.206387
v 0.347711 0.227046 0.206387
v 0.349591 0.226179 0.206387
v 0.351295 0.225002 0.206387
v 0.352771 0.223549 0.206387
v 0.353975 0.221864 0.206387
v 0.354871 0.219997 0.206387
v 0.355433 0.218004 0.206387
v 0.355644 0.215944 0.206387
v 0.342094 0.202087 0.158474
v 0.34365 0.202 0.158387
v 0.341215 0.202213 0.1586
v 0.340406 0.202381 0.158768
v 0.33886 0.202845 0.159232
v 0.338732 0.202892 0.159279
v 0.337064 0.203646 0.160033
v 0.335407 0.204684 0.161071
v 0.336642 0.20388 0.160267
v 0.333791 0.20606 0.162447
v 0.334641 0.205284 0.161671
v 0.345018 0.167 0.176146
v 0.34565 0.167 0.175851
v 0.344345 0.167 0.176326
v 0.344345 0.167 0.168448
v 0.345018 0.167 0.168628
v 0.34565 0.167 0.168923
v 0.346221 0.167 0.169323
v 0.346714 0.167 0.169816
v 0.347114 0.167 0.170387
v 0.347409 0.167 0.171019
v 0.347589 0.167 0.171692
v 0.34765 0.167 0.172387
v 0.347589 0.167 0.173081
v 0.347409 0.167 0.173755
v 0.347114 0.167 0.174387
v 0.346714 0.167 0.174958
v 0.346221 0.167 0.175451
v 0.345018 0.018 0.168628
v 0.34565 0.018 0.168923
v 0.344345 0.018 0.168448
v 0.344345 0.018 0.176326
v 0.345018 0.018 0.176146
v 0.34565 0.018 0.175851
v 0.346221 0.018 0.175451
v 0.346714 0.018 0.174958
v 0.347114 0.018 0.174387
v 0.347409 0.018 0.173755
v 0.347589 0.018 0.173081
v 0.34765 0.018 0.172387
v 0.347589 0.018 0.171692
v 0.347409 0.018 0.171019
v 0.347114 0.018 0.170387
v 0.346714 0.018 0.169816
v 0.346221 0.018 0.169323
v 0.33765 0.226392 1.15727
v 0.335937 0.225193 1.15727
v 0.339546 0.227276 1.15727
v 0.341566 0.227818 1.15727
v 0.34365 0.228 1.15727
v 0.345734 0.227818 1.15727
v 0.347754 0.227276 1.15727
v 0.34965 0.226392 1.15727
v 0.351364 0.225193 1.15727
v 0.352843 0.223713 1.15727
v 0.354042 0.222 1.15727
v 0.354926 0.220104 1.15727
v 0.355468 0.218084 1.15727
v 0.331832 0.218084 1.15727
v 0.332374 0.220104 1.15727
v 0.333258 0.222 1.15727
v 0.334458 0.223713 1.15727
v 0.372658 0.234507 1.24927
v 0.332925 0.224999 1.19627
v 0.331526 0.223 1.19627
v 0.357437 0.218431 1.19627
v 0.356806 0.220788 1.19627
v 0.355774 0.223 1.19627
v 0.354375 0.224999 1.19627
v 0.352649 0.226725 1.19627
v 0.35065 0.228124 1.19627
v 0.330494 0.220788 1.19627
v 0.329863 0.218431 1.19627
v 0.341219 0.229787 1.19627
v 0.338862 0.229156 1.19627
v 0.33665 0.228124 1.19627
v 0.334651 0.226725 1.19627
v 0.348438 0.229156 1.19627
v 0.346081 0.229787 1.19627
v 0.34365 0.23 1.19627
v 0.316735 0.237438 1.24927
v 0.367264 0.23479 1.23031
v 0.329967 0.236744 1.22373
v 0.334621 0.236501 1.22155
v 0.354773 0.235445 1.22155
v 0.359427 0.235201 1.22373
v 0.363633 0.23498 1.22668
v 0.322129 0.237155 1.23031
v 0.325761 0.236965 1.22668
v 0.339581 0.236241 1.22022
v 0.344697 0.235973 1.21977
v 0.349813 0.235704 1.22022
v 0.35765 0.216 0.0825
v 0.357437 0.213569 0.0825
v 0.356806 0.211212 0.0825
v 0.355774 0.209 0.0825
v 0.354375 0.207001 0.0825
v 0.352649 0.205275 0.0825
v 0.35065 0.203876 0.0825
v 0.348438 0.202844 0.0825
v 0.346081 0.202213 0.0825
v 0.34365 0.202 0.0825
v 0.341219 0.202213 0.0825
v 0.338862 0.202844 0.0825
v 0.33665 0.203876 0.0825
v 0.334651 0.205275 0.0825
v 0.332925 0.207001 0.0825
v 0.331526 0.209 0.0825
v 0.330494 0.211212 0.0825
v 0.329863 0.213569 0.0825
v 0.32965 0.216 0.0825
v 0.355464 0.217839 0.1215
v 0.354922 0.21986 0.1215
v 0.354038 0.221756 0.1215
v 0.352838 0.223469 0.1215
v 0.351359 0.224948 0.1215
v 0.349646 0.226148 0.1215
v 0.34775 0.227032 0.1215
v 0.34573 0.227573 0.1215
v 0.343646 0.227756 0.1215
v 0.341562 0.227573 0.1215
v 0.339542 0.227032 0.1215
v 0.337646 0.226148 0.1215
v 0.335932 0.224948 0.1215
v 0.334453 0.223469 0.1215
v 0.333254 0.221756 0.1215
v 0.33237 0.21986 0.1215
v 0.331828 0.217839 0.1215
v 0.372658 0.234507 0.0295
v 0.316735 0.237438 0.0295
v 0.331526 0.223 0.0825
v 0.332925 0.224999 0.0825
v 0.354375 0.224999 0.0825
v 0.355774 0.223 0.0825
v 0.329863 0.218431 0.0825
v 0.330494 0.220788 0.0825
v 0.356806 0.220788 0.0825
v 0.357437 0.218431 0.0825
v 0.334651 0.226725 0.0825
v 0.33665 0.228124 0.0825
v 0.338862 0.229156 0.0825
v 0.348438 0.229156 0.0825
v 0.35065 0.228124 0.0825
v 0.352649 0.226725 0.0825
v 0.341219 0.229787 0.0825
v 0.34365 0.23 0.0825
v 0.346081 0.229787 0.0825
v 0.339581 0.236241 0.0585519
v 0.334621 0.236501 0.0572209
v 0.329967 0.236744 0.0550478
v 0.367264 0.23479 0.0484623
v 0.363633 0.23498 0.0520983
v 0.359427 0.235201 0.0550478
v 0.325761 0.236965 0.0520983
v 0.322129 0.237155 0.0484623
v 0.354773 0.235445 0.0572209
v 0.349813 0.235704 0.0585519
v 0.344697 0.235973 0.059
v 0.350236 0.203646 1.11863
v 0.350658 0.20388 1.11839
v 0.351893 0.204684 1.11759
v 0.35266 0.205284 1.11699
v 0.353509 0.20606 1.11621
v 0.346085 0.202213 1.12006
v 0.346895 0.202381 1.11989
v 0.34844 0.202845 1.11943
v 0.348568 0.202892 1.11938
v 0.345206 0.202087 1.12019
v 0.344807 0.202048 0.158435
v 0.348442 0.202846 0.159232
v 0.348247 0.202776 0.159163
v 0.346482 0.202289 0.158676
v 0.346084 0.202213 0.1586
v 0.34989 0.203467 0.159854
v 0.35066 0.203882 0.160268
v 0.351564 0.204451 0.160838
v 0.352659 0.205284 0.161671
v 0.353234 0.205795 0.162182
# </points>

# <edges count="1660">
l 1 23
l 24 1
l 2 25
l 26 2
l 3 27
l 28 3
l 4 29
l 30 4
l 43 44
l 44 45
l 45 46
l 46 47
l 47 48
l 48 49
l 49 50
l 50 51
l 51 52
l 52 53
l 53 54
l 54 55
l 55 56
l 56 57
l 57 58
l 58 59
l 59 60
l 60 61
l 32 62
l 63 62
l 64 63
l 65 64
l 66 65
l 67 66
l 68 67
l 69 68
l 70 69
l 71 70
l 72 71
l 73 72
l 74 73
l 75 74
l 76 75
l 77 76
l 78 77
l 79 78
l 80 79
l 81 80
l 82 81
l 83 82
l 84 83
l 85 84
l 86 85
l 87 86
l 88 87
l 89 88
l 90 89
l 91 90
l 92 91
l 93 92
l 94 93
l 95 94
l 96 95
l 97 96
l 98 97
l 99 98
l 100 99
l 33 100
l 101 102
l 103 104
l 104 105
l 105 106
l 106 107
l 107 108
l 108 109
l 109 110
l 110 111
l 111 112
l 112 113
l 113 114
l 114 115
l 115 116
l 116 117
l 117 118
l 118 119
l 119 101
l 120 121
l 122 123
l 124 125
l 125 126
l 127 128
l 126 127
l 129 130
l 128 129
l 130 131
l 131 132
l 132 133
l 133 134
l 134 135
l 136 137
l 135 136
l 137 138
l 138 139
l 139 140
l 140 141
l 142 122
l 141 142
l 143 144
l 145 146
l 147 145
l 148 149
l 146 148
l 121 150
l 150 151
l 151 143
l 144 152
l 152 153
l 153 147
l 124 154
l 154 149
l 120 123
l 155 156
l 157 155
l 158 159
l 160 161
l 162 163
l 164 165
l 33 166
l 167 168
l 169 170
l 170 171
l 171 172
l 173 174
l 175 102
l 165 176
l 176 177
l 177 178
l 178 167
l 163 164
l 179 162
l 180 179
l 181 180
l 182 181
l 166 183
l 183 182
l 184 185
l 186 187
l 188 189
l 190 188
l 191 190
l 192 191
l 172 192
l 193 194
l 195 193
l 196 197
l 198 199
l 199 200
l 200 201
l 201 202
l 194 196
l 203 204
l 204 205
l 159 203
l 205 206
l 206 207
l 207 208
l 208 209
l 209 210
l 211 212
l 213 211
l 202 158
l 161 198
l 187 175
l 197 160
l 214 186
l 189 184
l 212 215
l 215 173
l 210 213
l 185 214
l 216 217
l 217 218
l 218 219
l 219 220
l 220 221
l 222 223
l 224 222
l 225 224
l 221 225
l 226 157
l 156 227
l 228 229
l 229 230
l 227 231
l 231 232
l 232 233
l 233 234
l 234 228
l 235 226
l 230 236
l 236 237
l 237 238
l 238 239
l 239 195
l 223 235
l 240 241
l 241 242
l 242 243
l 243 244
l 244 245
l 246 247
l 246 168
l 248 249
l 249 250
l 250 240
l 251 252
l 252 253
l 253 248
l 254 251
l 255 254
l 256 255
l 257 256
l 258 257
l 259 260
l 261 259
l 262 261
l 263 264
l 258 265
l 265 266
l 266 267
l 267 268
l 269 262
l 270 269
l 271 270
l 272 271
l 268 272
l 273 274
l 274 275
l 275 5
l 5 263
l 276 273
l 260 276
l 34 5
l 277 35
l 278 277
l 279 6
l 6 278
l 280 279
l 281 280
l 282 281
l 283 282
l 284 283
l 169 284
l 174 285
l 285 6
l 286 287
l 264 286
l 288 216
l 289 288
l 290 289
l 291 290
l 287 291
l 292 293
l 294 295
l 103 296
l 297 32
l 298 294
l 295 297
l 293 299
l 296 292
l 300 301
l 302 303
l 299 304
l 305 306
l 307 305
l 308 309
l 309 307
l 301 310
l 310 311
l 312 302
l 313 312
l 311 313
l 314 315
l 315 316
l 316 317
l 304 318
l 318 319
l 319 314
l 320 298
l 321 320
l 322 321
l 323 322
l 324 323
l 306 325
l 325 326
l 326 327
l 327 328
l 328 329
l 329 330
l 330 331
l 331 332
l 332 333
l 333 324
l 303 334
l 334 335
l 317 300
l 336 337
l 338 336
l 339 340
l 337 339
l 341 342
l 342 338
l 343 344
l 344 341
l 7 308
l 345 7
l 346 347
l 348 349
l 349 350
l 350 351
l 351 352
l 352 353
l 353 354
l 354 346
l 347 355
l 355 345
l 335 8
l 8 343
l 7 8
l 356 357
l 357 358
l 359 360
l 358 359
l 361 362
l 360 361
l 363 364
l 362 363
l 365 366
l 364 365
l 366 367
l 367 368
l 368 369
l 369 370
l 370 371
l 371 372
l 372 373
l 373 374
l 375 376
l 376 377
l 377 378
l 378 379
l 379 380
l 380 381
l 381 382
l 382 383
l 383 384
l 384 385
l 385 386
l 386 387
l 387 388
l 388 389
l 389 390
l 390 391
l 391 392
l 392 393
l 393 394
l 394 395
l 395 396
l 396 397
l 397 398
l 398 399
l 399 400
l 400 401
l 401 402
l 402 403
l 403 404
l 404 405
l 405 406
l 406 407
l 407 408
l 408 409
l 409 410
l 410 375
l 411 412
l 412 413
l 413 414
l 414 415
l 415 416
l 416 417
l 417 418
l 418 419
l 419 420
l 420 421
l 421 422
l 422 423
l 423 374
l 356 424
l 424 425
l 425 426
l 426 427
l 427 411
l 428 429
l 429 430
l 430 431
l 431 432
l 432 433
l 433 434
l 434 435
l 435 436
l 436 437
l 437 438
l 439 440
l 438 439
l 441 442
l 440 441
l 443 444
l 442 443
l 445 446
l 444 445
l 447 448
l 448 449
l 449 450
l 450 451
l 451 452
l 452 453
l 453 454
l 454 455
l 455 456
l 456 457
l 457 458
l 458 459
l 459 446
l 428 460
l 460 461
l 461 462
l 462 463
l 463 447
l 464 465
l 466 467
l 465 468
l 469 466
l 468 470
l 471 469
l 470 472
l 473 471
l 472 474
l 475 473
l 474 476
l 477 475
l 476 478
l 479 477
l 478 480
l 481 479
l 480 482
l 483 481
l 482 484
l 485 483
l 484 486
l 487 485
l 486 488
l 489 487
l 488 490
l 491 489
l 490 492
l 493 491
l 492 494
l 495 493
l 494 496
l 497 495
l 496 498
l 499 497
l 498 500
l 501 499
l 502 503
l 503 504
l 504 505
l 505 506
l 506 507
l 507 508
l 508 509
l 509 510
l 510 511
l 511 512
l 512 513
l 513 514
l 514 515
l 515 467
l 501 516
l 516 517
l 517 518
l 518 502
l 519 520
l 521 522
l 520 523
l 523 521
l 522 524
l 524 525
l 525 526
l 526 527
l 527 528
l 529 530
l 530 519
l 531 532
l 532 533
l 534 500
l 535 534
l 533 535
l 528 531
l 464 529
l 536 537
l 537 538
l 539 540
l 538 539
l 541 542
l 540 541
l 543 544
l 542 543
l 545 546
l 544 545
l 546 547
l 547 548
l 548 549
l 549 550
l 550 551
l 551 552
l 552 553
l 553 554
l 555 556
l 556 557
l 557 558
l 558 559
l 559 560
l 560 561
l 561 562
l 562 563
l 563 564
l 564 565
l 565 566
l 566 567
l 567 568
l 568 569
l 569 570
l 570 571
l 571 572
l 572 573
l 573 574
l 574 575
l 575 576
l 576 577
l 577 578
l 578 579
l 579 580
l 580 581
l 581 582
l 582 583
l 583 584
l 584 585
l 585 586
l 586 587
l 587 588
l 588 589
l 589 590
l 590 555
l 591 554
l 592 591
l 593 592
l 594 593
l 595 594
l 596 595
l 597 596
l 598 597
l 599 598
l 600 599
l 601 600
l 602 601
l 603 602
l 604 603
l 605 604
l 606 605
l 607 606
l 536 607
l 608 609
l 609 610
l 610 611
l 611 612
l 612 613
l 613 614
l 614 615
l 615 616
l 616 617
l 617 618
l 619 620
l 618 619
l 621 622
l 620 621
l 623 624
l 622 623
l 625 626
l 624 625
l 627 628
l 628 629
l 629 626
l 608 630
l 630 631
l 631 632
l 632 633
l 633 634
l 634 635
l 635 636
l 636 637
l 637 638
l 638 639
l 639 640
l 640 641
l 641 642
l 642 643
l 643 627
l 644 645
l 646 647
l 645 648
l 649 646
l 648 650
l 651 649
l 650 652
l 653 651
l 652 654
l 655 653
l 654 656
l 657 655
l 656 658
l 659 657
l 658 660
l 661 659
l 660 662
l 663 661
l 662 664
l 665 663
l 664 666
l 667 665
l 666 668
l 669 667
l 668 670
l 671 669
l 670 672
l 673 671
l 672 674
l 675 673
l 674 676
l 677 675
l 676 678
l 679 677
l 678 680
l 681 679
l 682 683
l 683 684
l 684 647
l 681 685
l 685 686
l 686 687
l 687 688
l 688 689
l 689 690
l 690 691
l 691 692
l 692 693
l 693 694
l 694 695
l 695 696
l 696 697
l 697 698
l 698 682
l 644 699
l 699 700
l 700 701
l 701 702
l 703 680
l 704 703
l 702 705
l 706 707
l 707 704
l 705 708
l 708 709
l 709 710
l 711 712
l 713 711
l 710 714
l 714 713
l 715 706
l 712 715
l 716 717
l 717 718
l 718 719
l 719 720
l 720 721
l 721 722
l 722 723
l 723 724
l 724 725
l 725 726
l 726 727
l 727 728
l 728 61
l 43 729
l 729 730
l 730 731
l 731 732
l 732 716
l 10 36
l 31 9
l 9 10
l 4 11
l 11 733
l 31 12
l 12 37
l 733 9
l 36 13
l 13 12
l 38 13
l 10 734
l 734 14
l 14 3
l 11 14
l 735 29
l 736 735
l 37 737
l 737 738
l 738 739
l 739 740
l 740 736
l 741 38
l 28 742
l 742 743
l 743 744
l 744 745
l 745 746
l 746 741
l 747 27
l 30 748
l 748 749
l 749 750
l 751 747
l 752 751
l 753 752
l 750 754
l 754 755
l 755 753
l 756 757
l 758 756
l 759 758
l 760 759
l 761 760
l 762 761
l 763 762
l 764 763
l 765 764
l 766 765
l 767 766
l 768 767
l 769 768
l 770 769
l 771 770
l 772 771
l 773 772
l 774 773
l 775 757
l 774 776
l 776 777
l 778 779
l 780 781
l 782 783
l 783 784
l 785 786
l 787 782
l 786 788
l 788 789
l 789 775
l 781 787
l 784 790
l 790 778
l 777 780
l 779 791
l 791 785
l 792 793
l 793 794
l 794 795
l 795 796
l 796 797
l 797 798
l 798 799
l 799 800
l 800 801
l 801 802
l 802 803
l 803 804
l 804 805
l 805 806
l 806 807
l 807 808
l 808 809
l 809 810
l 792 811
l 811 812
l 812 813
l 813 814
l 814 815
l 815 816
l 816 817
l 817 818
l 818 819
l 819 820
l 820 821
l 821 822
l 822 823
l 823 824
l 824 825
l 825 826
l 826 827
l 827 810
l 40 15
l 16 39
l 15 16
l 828 17
l 17 2
l 1 18
l 18 829
l 829 15
l 40 19
l 19 41
l 39 20
l 20 19
l 16 828
l 42 20
l 18 17
l 830 25
l 24 831
l 831 832
l 832 833
l 834 830
l 835 834
l 836 835
l 833 837
l 838 836
l 837 838
l 839 23
l 840 839
l 41 841
l 841 842
l 842 843
l 843 844
l 844 840
l 845 846
l 847 848
l 846 849
l 850 847
l 849 26
l 851 850
l 852 851
l 853 852
l 854 853
l 855 854
l 856 855
l 857 856
l 858 857
l 859 858
l 860 859
l 861 860
l 862 861
l 863 862
l 864 863
l 865 864
l 866 865
l 866 867
l 868 869
l 869 870
l 871 872
l 872 868
l 870 873
l 873 874
l 874 848
l 867 875
l 876 877
l 877 871
l 878 879
l 879 880
l 881 878
l 875 882
l 882 881
l 883 876
l 880 883
l 884 42
l 845 885
l 885 886
l 886 884
l 21 34
l 887 21
l 888 887
l 889 888
l 890 889
l 891 890
l 892 891
l 893 892
l 894 893
l 895 894
l 896 895
l 897 896
l 898 897
l 899 898
l 900 899
l 901 900
l 902 901
l 903 902
l 22 903
l 35 22
l 22 21
l 23 904
l 904 905
l 905 24
l 25 906
l 906 907
l 907 26
l 908 909
l 910 911
l 909 912
l 913 910
l 912 914
l 915 913
l 914 916
l 917 915
l 916 918
l 919 917
l 918 920
l 921 919
l 920 922
l 923 921
l 922 924
l 925 923
l 924 926
l 927 925
l 926 928
l 929 927
l 928 930
l 931 929
l 930 932
l 933 931
l 932 934
l 935 933
l 934 936
l 937 935
l 936 938
l 939 937
l 938 940
l 941 939
l 940 942
l 943 941
l 942 944
l 945 943
l 27 946
l 946 947
l 947 28
l 29 948
l 948 949
l 949 30
l 950 951
l 952 950
l 953 952
l 954 953
l 955 954
l 956 955
l 957 956
l 958 957
l 959 958
l 960 959
l 961 960
l 962 961
l 963 962
l 964 963
l 965 964
l 966 965
l 967 966
l 31 967
l 968 31
l 969 970
l 971 972
l 970 973
l 974 971
l 973 975
l 976 974
l 975 977
l 978 976
l 977 979
l 980 978
l 979 981
l 982 980
l 981 983
l 984 982
l 983 985
l 986 984
l 985 987
l 988 986
l 987 989
l 990 988
l 989 991
l 992 990
l 991 993
l 994 992
l 993 995
l 996 994
l 995 997
l 998 996
l 997 999
l 1000 998
l 999 1001
l 1002 1000
l 1001 1003
l 1004 1002
l 1003 1005
l 1006 1004
l 1007 1008
l 1009 1010
l 1008 1011
l 1012 1009
l 1011 1013
l 1014 1012
l 1013 1015
l 1016 1014
l 1015 1017
l 1018 1016
l 1017 1019
l 1020 1018
l 1019 1021
l 1022 1020
l 1021 1023
l 1024 1022
l 1023 1025
l 1026 1024
l 1025 1027
l 1028 1026
l 1027 1029
l 1030 1028
l 1029 1031
l 1032 1030
l 1031 1033
l 1034 1032
l 1033 1035
l 1036 1034
l 1035 1037
l 1038 1036
l 1037 1039
l 1040 1038
l 1039 1041
l 1042 1040
l 1041 1043
l 1044 1042
l 1045 1046
l 1047 1048
l 1049 1050
l 1048 1051
l 1052 1049
l 1053 1052
l 1051 1054
l 1055 1053
l 1056 1055
l 1054 1057
l 1058 1056
l 1059 1058
l 1057 1060
l 1061 1059
l 1062 1061
l 1060 1063
l 1064 1062
l 1065 1064
l 1063 1066
l 1067 1065
l 1068 1067
l 1066 1069
l 1070 1068
l 1071 1070
l 1069 1072
l 1073 1071
l 1074 1073
l 1072 1075
l 1076 1074
l 1077 1078
l 1079 1080
l 1080 1081
l 1075 1077
l 1081 1082
l 1082 1076
l 1083 1084
l 1085 1086
l 1086 1087
l 1078 1083
l 1087 1088
l 1088 1079
l 1089 1090
l 1046 1091
l 1091 1092
l 1084 1089
l 1092 1093
l 1093 1085
l 1094 1095
l 1095 1096
l 1090 1097
l 1096 1098
l 1098 1045
l 1097 1099
l 1099 1100
l 1101 1094
l 1100 1102
l 1103 1101
l 1104 1105
l 1106 1107
l 1105 1108
l 1109 1106
l 1108 1110
l 1111 1109
l 1110 1112
l 1113 1111
l 1112 1114
l 1115 1113
l 1114 1116
l 1117 1115
l 1116 1118
l 1119 1117
l 1118 1120
l 1121 1119
l 1120 1122
l 1123 1121
l 1122 1124
l 1125 1123
l 1124 1126
l 1127 1125
l 1126 1128
l 1129 1127
l 1128 1130
l 1131 1129
l 1130 1132
l 1133 1131
l 1132 1134
l 1135 1133
l 1134 1136
l 1137 1135
l 1136 1138
l 1139 1137
l 1138 1140
l 1141 1139
l 1142 1143
l 1144 1145
l 1143 1146
l 1147 1144
l 1146 1148
l 1149 1147
l 1148 1150
l 1151 1149
l 1150 1152
l 1153 1151
l 1152 1154
l 1155 1153
l 1154 1156
l 1157 1155
l 1156 1158
l 1159 1157
l 1158 1160
l 1161 1159
l 1160 1162
l 1163 1161
l 1162 1164
l 1165 1163
l 1164 1166
l 1167 1165
l 1166 1168
l 1169 1167
l 1168 1170
l 1171 1169
l 1170 1172
l 1173 1171
l 1172 1174
l 1175 1173
l 1174 1176
l 1177 1175
l 1176 1178
l 1179 1177
l 1180 32
l 1181 1180
l 1103 1182
l 1182 1183
l 1183 1184
l 1184 1185
l 1185 1186
l 1186 1187
l 1187 1188
l 1188 1189
l 1189 1190
l 1190 1191
l 1191 1192
l 1192 1193
l 1193 1194
l 1194 1195
l 1195 1196
l 1196 1197
l 1197 1198
l 1198 1199
l 1199 1200
l 1200 1201
l 1201 1202
l 1202 1203
l 1203 1204
l 1204 1205
l 1205 1206
l 1206 1207
l 1207 1208
l 1208 1209
l 1209 1210
l 1210 1211
l 1211 1212
l 1212 1213
l 1213 1214
l 1214 1215
l 1215 1216
l 1216 1217
l 1217 1050
l 33 1218
l 1218 1219
l 1219 1220
l 1221 1222
l 1223 1221
l 1224 1225
l 1226 1227
l 1227 1228
l 1228 1224
l 1229 1230
l 1230 1231
l 1231 1226
l 1232 1233
l 1233 1234
l 1235 1236
l 1236 1232
l 1237 1238
l 1220 1239
l 1239 1237
l 1240 1241
l 1241 1242
l 1242 1243
l 1243 1244
l 1244 1245
l 1245 1181
l 1142 1246
l 1247 1178
l 1248 1247
l 1249 1248
l 1250 1249
l 1251 1250
l 1252 1251
l 1253 1252
l 1254 1253
l 1255 1254
l 1256 1255
l 1257 1256
l 1258 1257
l 1259 1258
l 1260 1259
l 1261 1260
l 1262 1261
l 1246 1262
l 1263 1264
l 1265 1266
l 1225 1267
l 1267 1268
l 1268 1265
l 1266 1269
l 1269 1270
l 1270 1271
l 1271 1263
l 1264 1272
l 1272 1273
l 1273 1274
l 1275 1276
l 1276 1277
l 1277 1278
l 1274 1279
l 1279 1280
l 1280 1281
l 1281 1282
l 1282 1283
l 1283 1275
l 1284 1235
l 1285 1284
l 1222 1286
l 1286 1287
l 1287 1288
l 1288 1285
l 1289 34
l 35 1290
l 1290 1291
l 1292 1293
l 1294 1292
l 1293 1289
l 1291 1295
l 1295 1296
l 1296 1297
l 1297 1298
l 1298 1299
l 1299 1300
l 1300 1301
l 1301 1302
l 1302 1303
l 1303 1304
l 1304 1305
l 1305 1294
l 1306 1307
l 1307 1308
l 1308 1309
l 1309 1310
l 1311 1312
l 1312 1313
l 1313 1314
l 1314 1306
l 1315 1316
l 1316 1317
l 1317 1311
l 1318 1319
l 1319 1320
l 1320 1321
l 1321 1315
l 1322 1318
l 1323 1322
l 1324 1323
l 1325 1324
l 1326 1325
l 1327 1328
l 1329 1327
l 1330 1329
l 1331 1330
l 1332 1331
l 1333 1332
l 1334 1333
l 1335 1334
l 1336 1335
l 1337 1336
l 1338 1337
l 1339 1338
l 969 1339
l 1340 1005
l 1341 1340
l 1342 1341
l 1343 1342
l 1328 1343
l 1344 1345
l 1346 1344
l 1347 1346
l 1348 1347
l 1349 1348
l 1350 1349
l 1351 1350
l 1352 1351
l 1353 1352
l 1354 1353
l 1355 1354
l 1356 1355
l 1179 1356
l 1357 1145
l 1358 1357
l 1359 1358
l 1360 1359
l 1345 1360
l 1361 1362
l 1363 1364
l 1362 1365
l 1365 1366
l 1366 1367
l 1367 1363
l 1368 1369
l 1369 1370
l 1370 1371
l 1371 1361
l 1372 1373
l 1374 1372
l 1375 1374
l 1376 1375
l 1377 1376
l 1378 1377
l 1379 1378
l 1380 1379
l 1381 1380
l 1382 1381
l 1383 1382
l 1384 1383
l 1104 1384
l 1385 1140
l 1386 1385
l 1387 1386
l 1388 1387
l 1373 1388
l 1389 1390
l 1391 1389
l 1392 1391
l 1393 1392
l 1394 1393
l 1395 1394
l 1396 1395
l 1397 1396
l 1398 1397
l 1399 1398
l 1400 1399
l 1401 1400
l 1402 1401
l 1141 1402
l 1403 1107
l 1404 1403
l 1405 1404
l 1390 1405
l 1406 1407
l 1407 1408
l 1408 1409
l 1409 1410
l 1411 1412
l 1412 1413
l 1413 1414
l 1414 1406
l 1415 1416
l 1416 1417
l 1417 1411
l 1418 1419
l 1419 1420
l 1420 1421
l 1421 1415
l 1422 1418
l 1423 1422
l 1424 1423
l 1425 1424
l 1426 1425
l 1427 1428
l 1429 1427
l 1430 1429
l 1431 1430
l 1432 1431
l 1433 1432
l 1434 1433
l 1435 1434
l 1436 1435
l 1437 1436
l 1438 1437
l 1439 1438
l 908 1439
l 1440 944
l 1441 1440
l 1442 1441
l 1443 1442
l 1428 1443
l 1047 1444
l 1444 1445
l 1445 1446
l 1446 1447
l 1447 1448
l 1448 1449
l 1449 1450
l 1450 1451
l 1451 1452
l 1452 1453
l 1453 1454
l 1454 1455
l 1455 1456
l 1456 1457
l 1457 1458
l 1458 1459
l 1459 1460
l 1460 1461
l 1461 1462
l 1462 1102
l 1463 1464
l 1465 1463
l 1466 1465
l 1467 1466
l 1468 1467
l 1469 1468
l 1470 1471
l 1471 1469
l 1472 1473
l 1473 1470
l 1474 1475
l 1476 1474
l 1007 1476
l 1477 1043
l 1478 1477
l 1479 1478
l 1480 1479
l 1481 1480
l 1482 1481
l 1483 1482
l 1484 1483
l 1485 1484
l 1486 1485
l 1487 1486
l 1488 1487
l 1489 1488
l 1490 1489
l 1475 1490
l 1491 1492
l 1493 1491
l 1044 1493
l 1494 1010
l 1495 1494
l 1496 1495
l 1497 1496
l 1498 1497
l 1499 1498
l 1500 1499
l 1501 1500
l 1502 1501
l 1503 1502
l 1504 1503
l 1505 1504
l 1506 1505
l 1507 1506
l 1492 1507
l 1508 1509
l 1510 1508
l 1511 1510
l 1512 1511
l 1513 1512
l 1514 1513
l 1515 1514
l 1516 1515
l 1517 1516
l 1518 1517
l 1519 1518
l 1520 1519
l 1006 1520
l 1521 972
l 1522 1521
l 1523 1522
l 1524 1523
l 1509 1524
l 36 951
l 1525 29
l 37 1525
l 1526 1527
l 968 1528
l 1528 1529
l 1529 1530
l 1530 1531
l 1531 1532
l 1532 1533
l 1527 1534
l 1534 1535
l 1535 36
l 1536 1537
l 1537 1538
l 1538 1539
l 1539 1526
l 1533 1540
l 1540 1541
l 1541 1542
l 1542 1536
l 1543 38
l 28 1543
l 1544 37
l 1545 1546
l 1547 1548
l 1548 1549
l 1549 1544
l 38 1550
l 1550 1551
l 1551 1545
l 1546 1552
l 1552 1553
l 1553 1554
l 1554 1547
l 30 27
l 39 1555
l 1556 39
l 1557 1556
l 1558 1557
l 1559 1558
l 1560 1559
l 1561 1560
l 1562 1561
l 1563 1562
l 1564 1563
l 1565 1564
l 1566 1565
l 1567 1566
l 1568 1567
l 1569 1568
l 1570 1569
l 1571 1570
l 1572 1571
l 1573 1572
l 1574 911
l 1575 1574
l 1576 1575
l 1577 1576
l 1578 1577
l 1579 1578
l 1580 1579
l 1581 1580
l 1582 1581
l 1583 1582
l 1584 1583
l 1585 1584
l 1586 1585
l 1587 1586
l 1588 1587
l 1589 1588
l 1590 1589
l 945 1590
l 1573 40
l 26 1591
l 1592 23
l 41 1592
l 1593 1594
l 1595 1596
l 40 1597
l 1597 1598
l 1598 1593
l 1596 1599
l 1599 1600
l 1600 1555
l 1594 1601
l 1601 1602
l 1602 1603
l 1604 1605
l 1605 1606
l 1606 1595
l 1603 1607
l 1607 1608
l 1608 1609
l 1609 1604
l 1591 42
l 1610 1611
l 1611 1612
l 42 1613
l 1613 1614
l 1614 1615
l 1612 1616
l 1616 1617
l 1617 41
l 1615 1618
l 1618 1619
l 1619 1620
l 1620 1610
l 24 25
l 1621 1622
l 1622 1623
l 1623 1624
l 1624 1625
l 1626 1627
l 1627 1628
l 1628 1629
l 1629 1621
l 1368 1630
l 1630 1626
l 1631 1464
l 1632 1633
l 1633 1634
l 1634 1635
l 1635 1631
l 1636 1632
l 1637 1636
l 1638 1637
l 1639 1638
l 1640 1639
# </edges>
