v 0.314585 0.237281 0.00750005
v 0.313453 0.23734 0.0158154
l 1 2
v 0.311868 0.237423 0.0194104
v 0.313453 0.23734 0.0158154
l 3 4
v 0.313453 0.23734 0.0158154
v 0.314038 0.23731 0.01475
l 5 6
v 0.311589 0.237438 0.0295
v 0.313453 0.23734 0.0158154
l 7 8
v 0.319925 0.237001 0.00750005
v 0.314585 0.237281 0.00750005
l 9 10
v 0.319925 0.237001 0.00750005
v 0.320615 0.236965 0.00690174
l 11 12
v 0.316984 0.237155 0.0105377
v 0.319925 0.237001 0.00750005
l 13 14
v 0.319925 0.237001 0.00750005
v 0.359177 0.234944 0.00750005
l 15 16
v 0.364517 0.234664 0.00750005
v 0.359177 0.234944 0.00750005
l 17 18
v 0.358487 0.23498 0.00690174
v 0.359177 0.234944 0.00750005
l 19 20
v 0.359177 0.234944 0.00750005
v 0.362118 0.23479 0.0105377
l 21 22
v 0.319925 0.237001 0.00750005
v 0.359177 0.234944 0.00750005
l 23 24
v 0.365649 0.234605 0.0158154
v 0.364517 0.234664 0.00750005
l 25 26
v 0.367234 0.234522 0.0194104
v 0.365649 0.234605 0.0158154
l 27 28
v 0.365064 0.234636 0.01475
v 0.365649 0.234605 0.0158154
l 29 30
v 0.365649 0.234605 0.0158154
v 0.367513 0.234507 0.0295
l 31 32
v 0.314585 0.237281 1.27127
v 0.319925 0.237001 1.27127
l 33 34
v 0.320615 0.236965 1.27187
v 0.319925 0.237001 1.27127
l 35 36
v 0.319925 0.237001 1.27127
v 0.316984 0.237155 1.26824
l 37 38
v 0.359177 0.234944 1.27127
v 0.319925 0.237001 1.27127
l 39 40
v 0.313453 0.23734 1.26296
v 0.314585 0.237281 1.27127
l 41 42
v 0.313453 0.23734 1.26296
v 0.311868 0.237423 1.25936
l 43 44
v 0.314038 0.23731 1.26402
v 0.313453 0.23734 1.26296
l 45 46
v 0.313453 0.23734 1.26296
v 0.311589 0.237438 1.24927
l 47 48
v 0.364517 0.234664 1.27127
v 0.365649 0.234605 1.26296
l 49 50
v 0.367234 0.234522 1.25936
v 0.365649 0.234605 1.26296
l 51 52
v 0.365649 0.234605 1.26296
v 0.365064 0.234636 1.26402
l 53 54
v 0.367513 0.234507 1.24927
v 0.365649 0.234605 1.26296
l 55 56
v 0.359177 0.234944 1.27127
v 0.364517 0.234664 1.27127
l 57 58
v 0.359177 0.234944 1.27127
v 0.358487 0.23498 1.27187
l 59 60
v 0.362118 0.23479 1.26824
v 0.359177 0.234944 1.27127
l 61 62
v 0.359177 0.234944 1.27127
v 0.319925 0.237001 1.27127
l 63 64
v 0.352485 0.215267 1.19627
v 0.351438 0.195295 1.19627
l 65 66
v 0.352485 0.215267 1.19627
v 0.353532 0.23524 1.19627
l 67 68
v 0.352485 0.215267 1.19627
v 0.352292 0.213569 1.19627
l 69 70
v 0.352504 0.216 1.19627
v 0.352485 0.215267 1.19627
l 71 72
v 0.3525 0.210218 0.343696
v 0.3525 0.215756 0.343657
l 73 74
v 0.538462 0.217646 0.306015
v 0.3525 0.210218 0.343696
l 75 76
v 0.3525 0.212954 0.385811
v 0.3525 0.210218 0.343696
l 77 78
v 0.323862 0.20907 0.349387
v 0.324036 0.211064 0.349342
l 79 80
v 0.323862 0.20907 0.349387
v 0.312823 0.208613 0.351276
l 81 82
v 0.323862 0.20907 0.349387
v 0.323887 0.209356 0.355232
l 83 84
v 1.59816e-08 0.250946 0.262327
v 1.59816e-08 0.252446 0.262327
l 85 86
v 1.59816e-08 0.250946 0.242327
v 1.59816e-08 0.250946 0.262327
l 87 88
v 0.00494899 0.250513 0.262327
v 1.59816e-08 0.250946 0.262327
l 89 90
v 1.59816e-08 0.192446 0.262327
v 1.59816e-08 0.193946 0.262327
l 91 92
v 1.59816e-08 0.193946 0.262327
v 1.59816e-08 0.193946 0.242327
l 93 94
v 1.59816e-08 0.193946 0.262327
v 0.00494899 0.194379 0.262327
l 95 96
v 0.323477 0.19676 1.19627
v 0.324523 0.216733 1.19627
l 97 98
v 0.324523 0.216733 1.19627
v 0.32557 0.236705 1.19627
l 99 100
v 0.324523 0.216733 1.19627
v 0.324504 0.216 1.19627
l 101 102
v 0.324717 0.218431 1.19627
v 0.324523 0.216733 1.19627
l 103 104
v 0.353532 0.23524 1.19627
v 0.362699 0.234759 1.23103
l 105 106
v 0.362699 0.234759 1.23103
v 0.365064 0.234636 1.23452
l 107 108
v 0.362699 0.234759 1.23103
v 0.367513 0.234507 1.24927
l 109 110
v 0.362118 0.23479 1.23031
v 0.362699 0.234759 1.23103
l 111 112
v 0.316403 0.237186 1.23103
v 0.32557 0.236705 1.19627
l 113 114
v 0.314038 0.23731 1.23452
v 0.316403 0.237186 1.23103
l 115 116
v 0.311589 0.237438 1.24927
v 0.316403 0.237186 1.23103
l 117 118
v 0.316403 0.237186 1.23103
v 0.316984 0.237155 1.23031
l 119 120
v 0.351438 0.195295 0.0825
v 0.352485 0.215267 0.0825
l 121 122
v 0.352485 0.215267 0.0825
v 0.353532 0.23524 0.0825
l 123 124
v 0.352485 0.215267 0.0825
v 0.352504 0.216 0.0825
l 125 126
v 0.352292 0.213569 0.0825
v 0.352485 0.215267 0.0825
l 127 128
v 0.324523 0.216733 0.0825
v 0.323477 0.19676 0.0825
l 129 130
v 0.324523 0.216733 0.0825
v 0.32557 0.236705 0.0825
l 131 132
v 0.324504 0.216 0.0825
v 0.324523 0.216733 0.0825
l 133 134
v 0.324523 0.216733 0.0825
v 0.324717 0.218431 0.0825
l 135 136
v 0.32557 0.236705 0.0825
v 0.316403 0.237186 0.0477463
l 137 138
v 0.316403 0.237186 0.0477463
v 0.314038 0.23731 0.04425
l 139 140
v 0.316403 0.237186 0.0477463
v 0.311589 0.237438 0.0295
l 141 142
v 0.316984 0.237155 0.0484623
v 0.316403 0.237186 0.0477463
l 143 144
v 0.362699 0.234759 0.0477463
v 0.353532 0.23524 0.0825
l 145 146
v 0.365064 0.234636 0.04425
v 0.362699 0.234759 0.0477463
l 147 148
v 0.367513 0.234507 0.0295
v 0.362699 0.234759 0.0477463
l 149 150
v 0.362699 0.234759 0.0477463
v 0.362118 0.23479 0.0484623
l 151 152
