v 0.261186 -0.35198 0.0583221
v 0.261198 -0.35202 0.0583691
l 1 2
v 0.261198 -0.35202 0.0583691
v 0.261212 -0.352068 0.0584261
l 3 4
v 0.261212 -0.352068 0.0584261
v 0.261401 -0.352502 0.0589413
l 5 6
v 0.262554 -0.3525 0.0616885
v 0.264413 -0.352502 0.0640491
l 7 8
v 0.261401 -0.352502 0.0589413
v 0.261441 -0.352502 0.059367
l 9 10
v 0.261441 -0.352502 0.059367
v 0.261571 -0.352501 0.0598857
l 11 12
v 0.261571 -0.352501 0.0598857
v 0.261842 -0.3525 0.0605291
l 13 14
v 0.261842 -0.3525 0.0605291
v 0.262554 -0.3525 0.0616885
l 15 16
v 0.656972 -0.352502 0.0609804
v 0.695781 -0.352502 0.0585118
l 17 18
v 0.623073 -0.352502 0.0640491
v 0.656972 -0.352502 0.0609804
l 19 20
v 0.69009 -0.323863 0.057363
v 0.68152 -0.323901 0.0577948
l 21 22
v 0.68152 -0.323901 0.0577948
v 0.64236 -0.324145 0.0605765
l 23 24
v 0.64236 -0.324145 0.0605765
v 0.594651 -0.324555 0.0652693
l 25 26
v 0.579363 -0.324814 0.0669949
v 0.573038 -0.324995 0.0677371
l 27 28
v 0.594651 -0.324555 0.0652693
v 0.579363 -0.324814 0.0669949
l 29 30
v 0.554936 -0.325804 0.0699461
v 0.550053 -0.326109 0.0705625
l 31 32
v 0.573038 -0.324995 0.0677371
v 0.554936 -0.325804 0.0699461
l 33 34
v 0.557361 -0.350428 0.0713825
v 0.560854 -0.350673 0.0709675
l 35 36
v 0.560854 -0.350673 0.0709675
v 0.579155 -0.351663 0.0688232
l 37 38
v 0.579155 -0.351663 0.0688232
v 0.585266 -0.351896 0.0681224
l 39 40
v 0.585266 -0.351896 0.0681224
v 0.599594 -0.352282 0.0665193
l 41 42
v 0.599594 -0.352282 0.0665193
v 0.621115 -0.3525 0.0642462
l 43 44
v 0.621115 -0.3525 0.0642462
v 0.623073 -0.352502 0.0640491
l 45 46
v 0.253632 -0.324748 0.0666614
v 0.251072 -0.32451 0.0645377
l 47 48
v 0.258081 -0.325582 0.0694432
v 0.254333 -0.324851 0.0671568
l 49 50
v 0.254333 -0.324851 0.0671568
v 0.253632 -0.324748 0.0666614
l 51 52
v 0.266691 -0.328096 0.0734153
v 0.264942 -0.327499 0.0727057
l 53 54
v 0.264942 -0.327499 0.0727057
v 0.2623 -0.326678 0.0715512
l 55 56
v 0.2623 -0.326678 0.0715512
v 0.258081 -0.325582 0.0694432
l 57 58
v 0.266956 -0.352253 0.0666693
v 0.268308 -0.351973 0.0678605
l 59 60
v 0.268308 -0.351973 0.0678605
v 0.268971 -0.351805 0.0684076
l 61 62
v 0.264413 -0.352502 0.0640491
v 0.266128 -0.352379 0.0658773
l 63 64
v 0.266128 -0.352379 0.0658773
v 0.266956 -0.352253 0.0666693
l 65 66
v 0.246625 -0.324291 0.0582549
v 0.246606 -0.324282 0.0580095
l 67 68
v 0.24716 -0.324344 0.0597644
v 0.246945 -0.324329 0.0593362
l 69 70
v 0.251072 -0.32451 0.0645377
v 0.2497 -0.324462 0.0631128
l 71 72
v 0.2497 -0.324462 0.0631128
v 0.248164 -0.324395 0.0612494
l 73 74
v 0.248164 -0.324395 0.0612494
v 0.24716 -0.324344 0.0597644
l 75 76
v 0.246945 -0.324329 0.0593362
v 0.246809 -0.324318 0.0590013
l 77 78
v 0.246809 -0.324318 0.0590013
v 0.246733 -0.32431 0.0587698
l 79 80
v 0.246733 -0.32431 0.0587698
v 0.246657 -0.324299 0.0584527
l 81 82
v 0.246657 -0.324299 0.0584527
v 0.246625 -0.324291 0.0582549
l 83 84
v 0.246606 -0.324282 0.0580095
v 0.246906 -0.324785 0.0575578
l 85 86
v 0.250156 -0.327467 0.0551445
v 0.250713 -0.327715 0.0549263
l 87 88
v 0.24967 -0.327216 0.0553698
v 0.250156 -0.327467 0.0551445
l 89 90
v 0.250713 -0.327715 0.0549263
v 0.251129 -0.327864 0.0547843
l 91 92
v 0.251129 -0.327864 0.0547843
v 0.251203 -0.327888 0.0547609
l 93 94
v 0.248629 -0.326537 0.0559805
v 0.249011 -0.326811 0.0557322
l 95 96
v 0.249011 -0.326811 0.0557322
v 0.249156 -0.326908 0.0556457
l 97 98
v 0.249156 -0.326908 0.0556457
v 0.24967 -0.327216 0.0553698
l 99 100
v 0.246906 -0.324785 0.0575578
v 0.247099 -0.325052 0.0573175
l 101 102
v 0.247099 -0.325052 0.0573175
v 0.247322 -0.325324 0.0570714
l 103 104
v 0.247322 -0.325324 0.0570714
v 0.24757 -0.325596 0.0568264
l 105 106
v 0.24757 -0.325596 0.0568264
v 0.247895 -0.325918 0.0565378
l 107 108
v 0.247895 -0.325918 0.0565378
v 0.248099 -0.326103 0.0563715
l 109 110
v 0.248099 -0.326103 0.0563715
v 0.248629 -0.326537 0.0559805
l 111 112
