v 0.318599 0.23734 0.0158154
v 0.319184 0.23731 0.01475
l 1 2
v 0.319184 0.23731 0.01475
v 0.322129 0.237155 0.0105377
l 3 4
v 0.322129 0.237155 0.0105377
v 0.325071 0.237001 0.00750005
l 5 6
v 0.364323 0.234944 0.00750005
v 0.367264 0.23479 0.0105377
l 7 8
v 0.367264 0.23479 0.0105377
v 0.37021 0.234636 0.01475
l 9 10
v 0.37021 0.234636 0.01475
v 0.370795 0.234605 0.0158154
l 11 12
v 0.355646 0.215756 0.138387
v 0.355464 0.213672 0.138387
l 13 14
v 0.355464 0.213672 0.1215
v 0.355646 0.215756 0.1215
l 15 16
v 0.355464 0.213672 0.138387
v 0.354922 0.211652 0.138387
l 17 18
v 0.354922 0.211652 0.1215
v 0.355464 0.213672 0.1215
l 19 20
v 0.354922 0.211652 0.138387
v 0.354038 0.209756 0.138387
l 21 22
v 0.354038 0.209756 0.1215
v 0.354922 0.211652 0.1215
l 23 24
v 0.354038 0.209756 0.138387
v 0.352838 0.208042 0.138387
l 25 26
v 0.352838 0.208042 0.1215
v 0.354038 0.209756 0.1215
l 27 28
v 0.352838 0.208042 0.138387
v 0.351359 0.206563 0.138387
l 29 30
v 0.351359 0.206563 0.1215
v 0.352838 0.208042 0.1215
l 31 32
v 0.351359 0.206563 0.138387
v 0.349646 0.205363 0.138387
l 33 34
v 0.349646 0.205363 0.1215
v 0.351359 0.206563 0.1215
l 35 36
v 0.349646 0.205363 0.138387
v 0.34775 0.204479 0.138387
l 37 38
v 0.34775 0.204479 0.1215
v 0.349646 0.205363 0.1215
l 39 40
v 0.34775 0.204479 0.138387
v 0.34573 0.203938 0.138387
l 41 42
v 0.34573 0.203938 0.1215
v 0.34775 0.204479 0.1215
l 43 44
v 0.34573 0.203938 0.138387
v 0.343646 0.203756 0.138387
l 45 46
v 0.343646 0.203756 0.1215
v 0.34573 0.203938 0.1215
l 47 48
v 0.343646 0.203756 0.138387
v 0.341562 0.203938 0.138387
l 49 50
v 0.341562 0.203938 0.1215
v 0.343646 0.203756 0.1215
l 51 52
v 0.341562 0.203938 0.138387
v 0.339542 0.204479 0.138387
l 53 54
v 0.339542 0.204479 0.1215
v 0.341562 0.203938 0.1215
l 55 56
v 0.339542 0.204479 0.138387
v 0.337646 0.205363 0.138387
l 57 58
v 0.337646 0.205363 0.1215
v 0.339542 0.204479 0.1215
l 59 60
v 0.337646 0.205363 0.138387
v 0.335932 0.206563 0.138387
l 61 62
v 0.335932 0.206563 0.1215
v 0.337646 0.205363 0.1215
l 63 64
v 0.335932 0.206563 0.138387
v 0.334453 0.208042 0.138387
l 65 66
v 0.334453 0.208042 0.1215
v 0.335932 0.206563 0.1215
l 67 68
v 0.334453 0.208042 0.138387
v 0.333254 0.209756 0.138387
l 69 70
v 0.333254 0.209756 0.1215
v 0.334453 0.208042 0.1215
l 71 72
v 0.333254 0.209756 0.138387
v 0.33237 0.211652 0.138387
l 73 74
v 0.33237 0.211652 0.1215
v 0.333254 0.209756 0.1215
l 75 76
v 0.33237 0.211652 0.138387
v 0.331828 0.213672 0.138387
l 77 78
v 0.331828 0.213672 0.1215
v 0.33237 0.211652 0.1215
l 79 80
v 0.331828 0.213672 0.138387
v 0.331646 0.215756 0.138387
l 81 82
v 0.331646 0.215756 0.1215
v 0.331828 0.213672 0.1215
l 83 84
v 0.325071 0.237001 1.27127
v 0.322129 0.237155 1.26824
l 85 86
v 0.322129 0.237155 1.26824
v 0.319184 0.23731 1.26402
l 87 88
v 0.319184 0.23731 1.26402
v 0.318599 0.23734 1.26296
l 89 90
v 0.370795 0.234605 1.26296
v 0.37021 0.234636 1.26402
l 91 92
v 0.37021 0.234636 1.26402
v 0.367264 0.23479 1.26824
l 93 94
v 0.367264 0.23479 1.26824
v 0.364323 0.234944 1.27127
l 95 96
v 0.329863 0.213569 1.19627
v 0.32965 0.216 1.19627
l 97 98
v 0.330494 0.211212 1.19627
v 0.329863 0.213569 1.19627
l 99 100
v 0.331526 0.209 1.19627
v 0.330494 0.211212 1.19627
l 101 102
v 0.332925 0.207001 1.19627
v 0.331526 0.209 1.19627
l 103 104
v 0.334651 0.205275 1.19627
v 0.332925 0.207001 1.19627
l 105 106
v 0.33665 0.203876 1.19627
v 0.334651 0.205275 1.19627
l 107 108
v 0.338862 0.202844 1.19627
v 0.33665 0.203876 1.19627
l 109 110
v 0.341219 0.202213 1.19627
v 0.338862 0.202844 1.19627
l 111 112
v 0.34365 0.202 1.19627
v 0.341219 0.202213 1.19627
l 113 114
v 0.346081 0.202213 1.19627
v 0.34365 0.202 1.19627
l 115 116
v 0.348438 0.202844 1.19627
v 0.346081 0.202213 1.19627
l 117 118
v 0.35065 0.203876 1.19627
v 0.348438 0.202844 1.19627
l 119 120
v 0.352649 0.205275 1.19627
v 0.35065 0.203876 1.19627
l 121 122
v 0.354375 0.207001 1.19627
v 0.352649 0.205275 1.19627
l 123 124
v 0.355774 0.209 1.19627
v 0.354375 0.207001 1.19627
l 125 126
v 0.356806 0.211212 1.19627
v 0.355774 0.209 1.19627
l 127 128
v 0.357437 0.213569 1.19627
v 0.356806 0.211212 1.19627
l 129 130
v 0.357631 0.215267 1.19627
v 0.357437 0.213569 1.19627
l 131 132
v 0.35765 0.216 1.19627
v 0.357631 0.215267 1.19627
l 133 134
v 0.33165 0.216 1.14027
v 0.331832 0.213916 1.14027
l 135 136
v 0.331832 0.213916 1.15727
v 0.33165 0.216 1.15727
l 137 138
v 0.331832 0.213916 1.14027
v 0.332374 0.211896 1.14027
l 139 140
v 0.332374 0.211896 1.15727
v 0.331832 0.213916 1.15727
l 141 142
v 0.332374 0.211896 1.14027
v 0.333258 0.21 1.14027
l 143 144
v 0.333258 0.21 1.15727
v 0.332374 0.211896 1.15727
l 145 146
v 0.333258 0.21 1.14027
v 0.334458 0.208286 1.14027
l 147 148
v 0.334458 0.208286 1.15727
v 0.333258 0.21 1.15727
l 149 150
v 0.334458 0.208286 1.14027
v 0.335937 0.206807 1.14027
l 151 152
v 0.335937 0.206807 1.15727
v 0.334458 0.208286 1.15727
l 153 154
v 0.335937 0.206807 1.14027
v 0.33765 0.205608 1.14027
l 155 156
v 0.33765 0.205608 1.15727
v 0.335937 0.206807 1.15727
l 157 158
v 0.33765 0.205608 1.14027
v 0.339546 0.204724 1.14027
l 159 160
v 0.339546 0.204724 1.15727
v 0.33765 0.205608 1.15727
l 161 162
v 0.339546 0.204724 1.14027
v 0.341566 0.204182 1.14027
l 163 164
v 0.341566 0.204182 1.15727
v 0.339546 0.204724 1.15727
l 165 166
v 0.341566 0.204182 1.14027
v 0.34365 0.204 1.14027
l 167 168
v 0.34365 0.204 1.15727
v 0.341566 0.204182 1.15727
l 169 170
v 0.34365 0.204 1.14027
v 0.345734 0.204182 1.14027
l 171 172
v 0.345734 0.204182 1.15727
v 0.34365 0.204 1.15727
l 173 174
v 0.345734 0.204182 1.14027
v 0.347754 0.204724 1.14027
l 175 176
v 0.347754 0.204724 1.15727
v 0.345734 0.204182 1.15727
l 177 178
v 0.347754 0.204724 1.14027
v 0.34965 0.205608 1.14027
l 179 180
v 0.34965 0.205608 1.15727
v 0.347754 0.204724 1.15727
l 181 182
v 0.34965 0.205608 1.14027
v 0.351364 0.206807 1.14027
l 183 184
v 0.351364 0.206807 1.15727
v 0.34965 0.205608 1.15727
l 185 186
v 0.351364 0.206807 1.14027
v 0.352843 0.208286 1.14027
l 187 188
v 0.352843 0.208286 1.15727
v 0.351364 0.206807 1.15727
l 189 190
v 0.352843 0.208286 1.14027
v 0.354042 0.21 1.14027
l 191 192
v 0.354042 0.21 1.15727
v 0.352843 0.208286 1.15727
l 193 194
v 0.354042 0.21 1.14027
v 0.354926 0.211896 1.14027
l 195 196
v 0.354926 0.211896 1.15727
v 0.354042 0.21 1.15727
l 197 198
v 0.354926 0.211896 1.14027
v 0.355468 0.213916 1.14027
l 199 200
v 0.355468 0.213916 1.15727
v 0.354926 0.211896 1.15727
l 201 202
v 0.355468 0.213916 1.14027
v 0.35565 0.216 1.14027
l 203 204
v 0.35565 0.216 1.15727
v 0.355468 0.213916 1.15727
l 205 206
v 0.34365 0.167 0.176387
v 0.342956 0.167 0.176326
l 207 208
v 0.342956 0.018 0.176326
v 0.34365 0.018 0.176387
l 209 210
v 0.342956 0.167 0.176326
v 0.342282 0.167 0.176146
l 211 212
v 0.342282 0.018 0.176146
v 0.342956 0.018 0.176326
l 213 214
v 0.342282 0.167 0.176146
v 0.34165 0.167 0.175851
l 215 216
v 0.34165 0.018 0.175851
v 0.342282 0.018 0.176146
l 217 218
v 0.34165 0.167 0.175851
v 0.341079 0.167 0.175451
l 219 220
v 0.341079 0.018 0.175451
v 0.34165 0.018 0.175851
l 221 222
v 0.341079 0.167 0.175451
v 0.340586 0.167 0.174958
l 223 224
v 0.340586 0.018 0.174958
v 0.341079 0.018 0.175451
l 225 226
v 0.340586 0.167 0.174958
v 0.340186 0.167 0.174387
l 227 228
v 0.340186 0.018 0.174387
v 0.340586 0.018 0.174958
l 229 230
v 0.340186 0.167 0.174387
v 0.339891 0.167 0.173755
l 231 232
v 0.339891 0.018 0.173755
v 0.340186 0.018 0.174387
l 233 234
v 0.339891 0.167 0.173755
v 0.339711 0.167 0.173081
l 235 236
v 0.339711 0.018 0.173081
v 0.339891 0.018 0.173755
l 237 238
v 0.339711 0.167 0.173081
v 0.33965 0.167 0.172387
l 239 240
v 0.33965 0.018 0.172387
v 0.339711 0.018 0.173081
l 241 242
v 0.33965 0.167 0.172387
v 0.339711 0.167 0.171692
l 243 244
v 0.339711 0.018 0.171692
v 0.33965 0.018 0.172387
l 245 246
v 0.339711 0.167 0.171692
v 0.339891 0.167 0.171019
l 247 248
v 0.339891 0.018 0.171019
v 0.339711 0.018 0.171692
l 249 250
v 0.339891 0.167 0.171019
v 0.340186 0.167 0.170387
l 251 252
v 0.340186 0.018 0.170387
v 0.339891 0.018 0.171019
l 253 254
v 0.340186 0.167 0.170387
v 0.340586 0.167 0.169816
l 255 256
v 0.340586 0.018 0.169816
v 0.340186 0.018 0.170387
l 257 258
v 0.340586 0.167 0.169816
v 0.341079 0.167 0.169323
l 259 260
v 0.341079 0.018 0.169323
v 0.340586 0.018 0.169816
l 261 262
v 0.341079 0.167 0.169323
v 0.34165 0.167 0.168923
l 263 264
v 0.34165 0.018 0.168923
v 0.341079 0.018 0.169323
l 265 266
v 0.34165 0.167 0.168923
v 0.342282 0.167 0.168628
l 267 268
v 0.342282 0.018 0.168628
v 0.34165 0.018 0.168923
l 269 270
v 0.342282 0.167 0.168628
v 0.342956 0.167 0.168448
l 271 272
v 0.342956 0.018 0.168448
v 0.342282 0.018 0.168628
l 273 274
v 0.342956 0.167 0.168448
v 0.34365 0.167 0.168387
l 275 276
v 0.34365 0.018 0.168387
v 0.342956 0.018 0.168448
l 277 278
v 0.35422 0.210082 0.34439
v 0.353974 0.209647 0.344443
l 279 280
v 0.331646 0.215756 0.206387
v 0.331647 0.215567 0.206387
l 281 282
v 0.331683 0.214818 0.348852
v 0.331646 0.215756 0.348852
l 283 284
v 0.331647 0.215567 0.206387
v 0.331858 0.213507 0.206387
l 285 286
v 0.331858 0.213507 0.348829
v 0.331683 0.214818 0.348852
l 287 288
v 0.331989 0.212908 0.348809
v 0.331858 0.213507 0.348829
l 289 290
v 0.331858 0.213507 0.206387
v 0.332421 0.211514 0.206387
l 291 292
v 0.332421 0.211514 0.348738
v 0.331989 0.212908 0.348809
l 293 294
v 0.332601 0.211065 0.348707
v 0.332421 0.211514 0.348738
l 295 296
v 0.332421 0.211514 0.206387
v 0.333317 0.209647 0.206387
l 297 298
v 0.333317 0.209647 0.348582
v 0.332601 0.211065 0.348707
l 299 300
v 0.33356 0.209255 0.348538
v 0.333317 0.209647 0.348582
l 301 302
v 0.333317 0.209647 0.206387
v 0.334521 0.207962 0.206387
l 303 304
v 0.334524 0.207959 0.348362
v 0.33356 0.209255 0.348538
l 305 306
v 0.335885 0.206603 0.348108
v 0.334524 0.207959 0.348362
l 307 308
v 0.334521 0.207962 0.206387
v 0.335997 0.20651 0.206387
l 309 310
v 0.335997 0.206509 0.348087
v 0.335885 0.206603 0.348108
l 311 312
v 0.337561 0.205413 0.347787
v 0.335997 0.206509 0.348087
l 313 314
v 0.335997 0.20651 0.206387
v 0.3377 0.205332 0.206387
l 315 316
v 0.337701 0.205332 0.34776
v 0.337561 0.205413 0.347787
l 317 318
v 0.339134 0.204636 0.347479
v 0.337701 0.205332 0.34776
l 319 320
v 0.3377 0.205332 0.206387
v 0.339581 0.204465 0.206387
l 321 322
v 0.339581 0.204465 0.347391
v 0.339134 0.204636 0.347479
l 323 324
v 0.341095 0.20403 0.347088
v 0.339581 0.204465 0.347391
l 325 326
v 0.339581 0.204465 0.206387
v 0.341583 0.203934 0.206387
l 327 328
v 0.341583 0.203934 0.34699
v 0.341095 0.20403 0.347088
l 329 330
v 0.343018 0.203772 0.346701
v 0.341583 0.203934 0.34699
l 331 332
v 0.341583 0.203934 0.206387
v 0.343646 0.203756 0.206387
l 333 334
v 0.343646 0.203756 0.346574
v 0.343018 0.203772 0.346701
l 335 336
v 0.345709 0.203934 0.206387
v 0.347711 0.204465 0.206387
l 337 338
v 0.34771 0.204465 0.345747
v 0.347032 0.204243 0.345886
l 339 340
v 0.347032 0.204243 0.345886
v 0.345709 0.203934 0.346156
l 341 342
v 0.343646 0.203756 0.206387
v 0.345709 0.203934 0.206387
l 343 344
v 0.345709 0.203934 0.346156
v 0.34499 0.203831 0.346302
l 345 346
v 0.34499 0.203831 0.346302
v 0.343646 0.203756 0.346574
l 347 348
v 0.349591 0.205332 0.206387
v 0.351295 0.20651 0.206387
l 349 350
v 0.351295 0.206509 0.345007
v 0.350537 0.205931 0.345165
l 351 352
v 0.350537 0.205931 0.345165
v 0.349591 0.205332 0.34536
l 353 354
v 0.347711 0.204465 0.206387
v 0.349591 0.205332 0.206387
l 355 356
v 0.349591 0.205332 0.34536
v 0.348914 0.204974 0.3455
l 357 358
v 0.348914 0.204974 0.3455
v 0.34771 0.204465 0.345747
l 359 360
v 0.352771 0.207962 0.206387
v 0.353975 0.209647 0.206387
l 361 362
v 0.353974 0.209647 0.344443
v 0.353083 0.208344 0.344632
l 363 364
v 0.353083 0.208344 0.344632
v 0.35277 0.207962 0.344698
l 365 366
v 0.351295 0.20651 0.206387
v 0.352771 0.207962 0.206387
l 367 368
v 0.35277 0.207962 0.344698
v 0.351732 0.206889 0.344916
l 369 370
v 0.351732 0.206889 0.344916
v 0.351295 0.206509 0.345007
l 371 372
v 0.355433 0.213507 0.344121
v 0.355041 0.211994 0.344211
l 373 374
v 0.355041 0.211994 0.344211
v 0.354871 0.211514 0.344248
l 375 376
v 0.353975 0.209647 0.206387
v 0.354871 0.211514 0.206387
l 377 378
v 0.354871 0.211514 0.344248
v 0.354324 0.21028 0.344368
l 379 380
v 0.354324 0.21028 0.344368
v 0.35422 0.210082 0.34439
l 381 382
v 0.354871 0.211514 0.206387
v 0.355433 0.213507 0.206387
l 383 384
v 0.355433 0.213507 0.206387
v 0.355644 0.215567 0.206387
l 385 386
v 0.355504 0.213916 0.344103
v 0.355433 0.213507 0.344121
l 387 388
v 0.355644 0.215567 0.206387
v 0.355646 0.215756 0.206387
l 389 390
v 0.355646 0.215756 0.344061
v 0.355504 0.213916 0.344103
l 391 392
v 0.34365 0.167 1.11027
v 0.342956 0.167 1.11021
l 393 394
v 0.342956 0.018 1.11021
v 0.34365 0.018 1.11027
l 395 396
v 0.342956 0.167 1.11021
v 0.342282 0.167 1.11003
l 397 398
v 0.342282 0.018 1.11003
v 0.342956 0.018 1.11021
l 399 400
v 0.342282 0.167 1.11003
v 0.34165 0.167 1.10974
l 401 402
v 0.34165 0.018 1.10974
v 0.342282 0.018 1.11003
l 403 404
v 0.34165 0.167 1.10974
v 0.341079 0.167 1.10934
l 405 406
v 0.341079 0.018 1.10934
v 0.34165 0.018 1.10974
l 407 408
v 0.341079 0.167 1.10934
v 0.340586 0.167 1.10884
l 409 410
v 0.340586 0.018 1.10884
v 0.341079 0.018 1.10934
l 411 412
v 0.340586 0.167 1.10884
v 0.340186 0.167 1.10827
l 413 414
v 0.340186 0.018 1.10827
v 0.340586 0.018 1.10884
l 415 416
v 0.340186 0.167 1.10827
v 0.339891 0.167 1.10764
l 417 418
v 0.339891 0.018 1.10764
v 0.340186 0.018 1.10827
l 419 420
v 0.339891 0.167 1.10764
v 0.339711 0.167 1.10697
l 421 422
v 0.339711 0.018 1.10697
v 0.339891 0.018 1.10764
l 423 424
v 0.339711 0.167 1.10697
v 0.33965 0.167 1.10627
l 425 426
v 0.33965 0.018 1.10627
v 0.339711 0.018 1.10697
l 427 428
v 0.33965 0.167 1.10627
v 0.339711 0.167 1.10558
l 429 430
v 0.339711 0.018 1.10558
v 0.33965 0.018 1.10627
l 431 432
v 0.339711 0.167 1.10558
v 0.339891 0.167 1.10491
l 433 434
v 0.339891 0.018 1.10491
v 0.339711 0.018 1.10558
l 435 436
v 0.339891 0.167 1.10491
v 0.340186 0.167 1.10427
l 437 438
v 0.340186 0.018 1.10427
v 0.339891 0.018 1.10491
l 439 440
v 0.340186 0.167 1.10427
v 0.340586 0.167 1.1037
l 441 442
v 0.340586 0.018 1.1037
v 0.340186 0.018 1.10427
l 443 444
v 0.340586 0.167 1.1037
v 0.341079 0.167 1.10321
l 445 446
v 0.341079 0.018 1.10321
v 0.340586 0.018 1.1037
l 447 448
v 0.341079 0.167 1.10321
v 0.34165 0.167 1.10281
l 449 450
v 0.34165 0.018 1.10281
v 0.341079 0.018 1.10321
l 451 452
v 0.34165 0.167 1.10281
v 0.342282 0.167 1.10251
l 453 454
v 0.342282 0.018 1.10251
v 0.34165 0.018 1.10281
l 455 456
v 0.342282 0.167 1.10251
v 0.342956 0.167 1.10233
l 457 458
v 0.342956 0.018 1.10233
v 0.342282 0.018 1.10251
l 459 460
v 0.342956 0.167 1.10233
v 0.34365 0.167 1.10227
l 461 462
v 0.34365 0.018 1.10227
v 0.342956 0.018 1.10233
l 463 464
v 0.33165 0.216 0.801274
v 0.331832 0.213916 0.801274
l 465 466
v 0.331832 0.213916 1.07227
v 0.33165 0.216 1.07227
l 467 468
v 0.331832 0.213916 0.801274
v 0.332374 0.211896 0.801274
l 469 470
v 0.332374 0.211896 1.07227
v 0.331832 0.213916 1.07227
l 471 472
v 0.332374 0.211896 0.801274
v 0.333258 0.21 0.801274
l 473 474
v 0.333258 0.21 1.07227
v 0.332374 0.211896 1.07227
l 475 476
v 0.333258 0.21 0.801274
v 0.334458 0.208286 0.801274
l 477 478
v 0.334458 0.208286 1.07227
v 0.333258 0.21 1.07227
l 479 480
v 0.334458 0.208286 0.801274
v 0.335937 0.206807 0.801274
l 481 482
v 0.335937 0.206807 1.07227
v 0.334458 0.208286 1.07227
l 483 484
v 0.335937 0.206807 0.801274
v 0.33765 0.205608 0.801274
l 485 486
v 0.33765 0.205608 1.07227
v 0.335937 0.206807 1.07227
l 487 488
v 0.33765 0.205608 0.801274
v 0.339546 0.204724 0.801274
l 489 490
v 0.339546 0.204724 1.07227
v 0.33765 0.205608 1.07227
l 491 492
v 0.339546 0.204724 0.801274
v 0.341566 0.204182 0.801274
l 493 494
v 0.341566 0.204182 1.07227
v 0.339546 0.204724 1.07227
l 495 496
v 0.341566 0.204182 0.801274
v 0.34365 0.204 0.801274
l 497 498
v 0.34365 0.204 1.07227
v 0.341566 0.204182 1.07227
l 499 500
v 0.34365 0.204 0.801274
v 0.345734 0.204182 0.801274
l 501 502
v 0.345734 0.204182 1.07227
v 0.34365 0.204 1.07227
l 503 504
v 0.345734 0.204182 0.801274
v 0.347754 0.204724 0.801274
l 505 506
v 0.347754 0.204724 1.07227
v 0.345734 0.204182 1.07227
l 507 508
v 0.347754 0.204724 0.801274
v 0.34965 0.205608 0.801274
l 509 510
v 0.34965 0.205608 1.07227
v 0.347754 0.204724 1.07227
l 511 512
v 0.34965 0.205608 0.801274
v 0.351364 0.206807 0.801274
l 513 514
v 0.351364 0.206807 1.07227
v 0.34965 0.205608 1.07227
l 515 516
v 0.351364 0.206807 0.801274
v 0.352843 0.208286 0.801274
l 517 518
v 0.352843 0.208286 1.07227
v 0.351364 0.206807 1.07227
l 519 520
v 0.352843 0.208286 0.801274
v 0.354042 0.21 0.801274
l 521 522
v 0.354042 0.21 1.07227
v 0.352843 0.208286 1.07227
l 523 524
v 0.354042 0.21 0.801274
v 0.354926 0.211896 0.801274
l 525 526
v 0.354926 0.211896 1.07227
v 0.354042 0.21 1.07227
l 527 528
v 0.354926 0.211896 0.801274
v 0.355468 0.213916 0.801274
l 529 530
v 0.355468 0.213916 1.07227
v 0.354926 0.211896 1.07227
l 531 532
v 0.355468 0.213916 0.801274
v 0.35565 0.216 0.801274
l 533 534
v 0.35565 0.216 1.07227
v 0.355468 0.213916 1.07227
l 535 536
v 0.357646 0.212954 0.385811
v 0.357646 0.210218 0.343696
l 537 538
v 0.357646 0.215756 0.416404
v 0.357646 0.212954 0.385811
l 539 540
v 0.355646 0.215756 0.344061
v 0.355578 0.217031 0.344066
l 541 542
v 0.355578 0.217031 0.344066
v 0.355433 0.218004 0.344089
l 543 544
v 0.355433 0.218004 0.344089
v 0.355211 0.218958 0.344127
l 545 546
v 0.355211 0.218958 0.344127
v 0.354871 0.219998 0.344188
l 547 548
v 0.354871 0.219998 0.344188
v 0.354537 0.220794 0.34425
l 549 550
v 0.354537 0.220794 0.34425
v 0.353974 0.221865 0.344357
l 551 552
v 0.353974 0.221865 0.344357
v 0.353599 0.222459 0.344428
l 553 554
v 0.353599 0.222459 0.344428
v 0.35277 0.22355 0.344588
l 555 556
v 0.35277 0.22355 0.344588
v 0.352433 0.223928 0.344654
l 557 558
v 0.352433 0.223928 0.344654
v 0.351295 0.225002 0.344877
l 559 560
v 0.351295 0.225002 0.344877
v 0.35102 0.225223 0.344931
l 561 562
v 0.35102 0.225223 0.344931
v 0.349591 0.226179 0.345213
l 563 564
v 0.349591 0.226179 0.345213
v 0.349344 0.226317 0.345262
l 565 566
v 0.349344 0.226317 0.345262
v 0.34771 0.227046 0.345587
l 567 568
v 0.34771 0.227046 0.345587
v 0.347414 0.227149 0.345646
l 569 570
v 0.347414 0.227149 0.345646
v 0.345709 0.227577 0.345989
l 571 572
v 0.345709 0.227577 0.345989
v 0.345558 0.227602 0.346019
l 573 574
v 0.345558 0.227602 0.346019
v 0.343853 0.227754 0.346363
l 575 576
v 0.343853 0.227754 0.346363
v 0.343646 0.227756 0.346405
l 577 578
v 0.343646 0.227756 0.346405
v 0.342019 0.227645 0.346734
l 579 580
v 0.342019 0.227645 0.346734
v 0.341583 0.227577 0.346823
l 581 582
v 0.341583 0.227577 0.346823
v 0.340088 0.227216 0.347129
l 583 584
v 0.340088 0.227216 0.347129
v 0.339581 0.227046 0.347232
l 585 586
v 0.339581 0.227046 0.347232
v 0.338397 0.226547 0.347473
l 587 588
v 0.338397 0.226547 0.347473
v 0.337701 0.22618 0.347613
l 589 590
v 0.337701 0.22618 0.347613
v 0.336635 0.225495 0.347826
l 591 592
v 0.336635 0.225495 0.347826
v 0.335997 0.225002 0.347952
l 593 594
v 0.335997 0.225002 0.347952
v 0.335195 0.224275 0.348111
l 595 596
v 0.335195 0.224275 0.348111
v 0.334522 0.22355 0.348244
l 597 598
v 0.334522 0.22355 0.348244
v 0.333878 0.222727 0.348372
l 599 600
v 0.333878 0.222727 0.348372
v 0.333317 0.221865 0.348484
l 601 602
v 0.333317 0.221865 0.348484
v 0.332881 0.221058 0.348573
l 603 604
v 0.332881 0.221058 0.348573
v 0.332421 0.219998 0.348669
l 605 606
v 0.332421 0.219998 0.348669
v 0.332166 0.219252 0.348723
l 607 608
v 0.332166 0.219252 0.348723
v 0.331858 0.218004 0.348792
l 609 610
v 0.331858 0.218004 0.348792
v 0.331788 0.217599 0.348809
l 611 612
v 0.331788 0.217599 0.348809
v 0.331646 0.215756 0.348852
l 613 614
v 0.329008 0.20907 0.349387
v 0.329033 0.209356 0.355232
l 615 616
v 0.329033 0.209356 0.355232
v 0.329289 0.212283 0.397116
l 617 618
v 0.329289 0.212283 0.397116
v 0.329699 0.216976 0.444826
l 619 620
v 0.35724 0.210173 0.778256
v 0.357646 0.210648 0.778076
l 621 622
v 0.356808 0.209654 0.778353
v 0.35724 0.210173 0.778256
l 623 624
v 0.329845 0.218104 0.786201
v 0.329654 0.216244 0.788405
l 625 626
v 0.330715 0.221122 0.781446
v 0.3306 0.220838 0.781958
l 627 628
v 0.3306 0.220838 0.781958
v 0.329998 0.218876 0.785125
l 629 630
v 0.329998 0.218876 0.785125
v 0.329845 0.218104 0.786201
l 631 632
v 0.333241 0.225122 0.772784
v 0.332578 0.224328 0.774735
l 633 634
v 0.332578 0.224328 0.774735
v 0.331825 0.223263 0.777167
l 635 636
v 0.331825 0.223263 0.777167
v 0.330715 0.221122 0.781446
l 637 638
v 0.357397 0.218378 0.772518
v 0.357193 0.219288 0.771497
l 639 640
v 0.357193 0.219288 0.771497
v 0.356751 0.220679 0.769793
l 641 642
v 0.357646 0.215756 0.775063
v 0.357608 0.216756 0.774155
l 643 644
v 0.357608 0.216756 0.774155
v 0.357397 0.218378 0.772518
l 645 646
v 0.330128 0.219405 0.466108
v 0.331015 0.221795 0.485672
l 647 648
v 0.329699 0.216976 0.444826
v 0.329799 0.217823 0.452444
l 649 650
v 0.329799 0.217823 0.452444
v 0.330128 0.219405 0.466108
l 651 652
v 0.355255 0.223579 0.486227
v 0.355834 0.222645 0.478377
l 653 654
v 0.355834 0.222645 0.478377
v 0.356801 0.220546 0.460457
l 655 656
v 0.356801 0.220546 0.460457
v 0.356928 0.220183 0.457304
l 657 658
v 0.356928 0.220183 0.457304
v 0.35743 0.218207 0.439713
l 659 660
v 0.35743 0.218207 0.439713
v 0.357644 0.215951 0.418347
l 661 662
v 0.357644 0.215951 0.418347
v 0.357646 0.215756 0.416404
l 663 664
v 0.33165 0.216 0.801274
v 0.331832 0.218084 0.801274
l 665 666
v 0.355468 0.218084 0.801274
v 0.35565 0.216 0.801274
l 667 668
v 0.354926 0.220104 0.801274
v 0.355468 0.218084 0.801274
l 669 670
v 0.354042 0.222 0.801274
v 0.354926 0.220104 0.801274
l 671 672
v 0.352843 0.223713 0.801274
v 0.354042 0.222 0.801274
l 673 674
v 0.351364 0.225193 0.801274
v 0.352843 0.223713 0.801274
l 675 676
v 0.34965 0.226392 0.801274
v 0.351364 0.225193 0.801274
l 677 678
v 0.347754 0.227276 0.801274
v 0.34965 0.226392 0.801274
l 679 680
v 0.345734 0.227818 0.801274
v 0.347754 0.227276 0.801274
l 681 682
v 0.34365 0.228 0.801274
v 0.345734 0.227818 0.801274
l 683 684
v 0.341566 0.227818 0.801274
v 0.34365 0.228 0.801274
l 685 686
v 0.339546 0.227276 0.801274
v 0.341566 0.227818 0.801274
l 687 688
v 0.33765 0.226392 0.801274
v 0.339546 0.227276 0.801274
l 689 690
v 0.335937 0.225193 0.801274
v 0.33765 0.226392 0.801274
l 691 692
v 0.334458 0.223713 0.801274
v 0.335937 0.225193 0.801274
l 693 694
v 0.333258 0.222 0.801274
v 0.334458 0.223713 0.801274
l 695 696
v 0.332374 0.220104 0.801274
v 0.333258 0.222 0.801274
l 697 698
v 0.331832 0.218084 0.801274
v 0.332374 0.220104 0.801274
l 699 700
v 0.329435 0.209962 0.792851
v 0.329426 0.209716 0.792871
l 701 702
v 0.329488 0.211471 0.792316
v 0.329473 0.211043 0.792532
l 703 704
v 0.329654 0.216244 0.788405
v 0.329606 0.214819 0.789776
l 705 706
v 0.329606 0.214819 0.789776
v 0.329539 0.212956 0.791313
l 707 708
v 0.329539 0.212956 0.791313
v 0.329488 0.211471 0.792316
l 709 710
v 0.329473 0.211043 0.792532
v 0.329462 0.210708 0.792668
l 711 712
v 0.329462 0.210708 0.792668
v 0.329454 0.210476 0.792744
l 713 714
v 0.329454 0.210476 0.792744
v 0.329443 0.210159 0.79282
l 715 716
v 0.329443 0.210159 0.79282
v 0.329435 0.209962 0.792851
l 717 718
v 0.329426 0.209716 0.792871
v 0.329929 0.209264 0.79257
l 719 720
v 0.329929 0.209264 0.79257
v 0.330196 0.209024 0.792378
l 721 722
v 0.330196 0.209024 0.792378
v 0.33074 0.208534 0.791908
l 723 724
v 0.33236 0.207077 0.789807
v 0.332625 0.206839 0.789291
l 725 726
v 0.332625 0.206839 0.789291
v 0.332859 0.206633 0.788764
l 727 728
v 0.332859 0.206633 0.788764
v 0.333006 0.206492 0.788352
l 729 730
v 0.33074 0.208534 0.791908
v 0.331097 0.208213 0.791544
l 731 732
v 0.331097 0.208213 0.791544
v 0.331249 0.208076 0.791375
l 733 734
v 0.331249 0.208076 0.791375
v 0.331681 0.207687 0.790848
l 735 736
v 0.331681 0.207687 0.790848
v 0.33197 0.207425 0.790443
l 737 738
v 0.33197 0.207425 0.790443
v 0.332052 0.207352 0.79032
l 739 740
v 0.332052 0.207352 0.79032
v 0.33236 0.207077 0.789807
l 741 742
v 0.357647 0.213303 0.776985
v 0.357646 0.215756 0.775063
l 743 744
v 0.357646 0.212153 0.777675
v 0.357647 0.213303 0.776985
l 745 746
v 0.357646 0.210648 0.778076
v 0.357646 0.211011 0.778045
l 747 748
v 0.357646 0.211011 0.778045
v 0.357646 0.211152 0.778021
l 749 750
v 0.357646 0.211152 0.778021
v 0.357646 0.211522 0.777928
l 751 752
v 0.357646 0.211522 0.777928
v 0.357646 0.212153 0.777675
l 753 754
v 0.0100949 0.250513 0.262327
v 0.00514589 0.250946 0.262327
l 755 756
v 0.00514589 0.193946 0.262327
v 0.0100949 0.194379 0.262327
l 757 758
v 0.0100949 0.194379 0.262327
v 0.0148935 0.195664 0.262327
l 759 760
v 0.0193959 0.247127 0.262327
v 0.0148935 0.249227 0.262327
l 761 762
v 0.0234653 0.244278 0.262327
v 0.0193959 0.247127 0.262327
l 763 764
v 0.0148935 0.249227 0.262327
v 0.0100949 0.250513 0.262327
l 765 766
v 0.0148935 0.195664 0.262327
v 0.0193959 0.197764 0.262327
l 767 768
v 0.0193959 0.197764 0.262327
v 0.0234653 0.200613 0.262327
l 769 770
v 0.0234653 0.200613 0.262327
v 0.0269782 0.204126 0.262327
l 771 772
v 0.0269782 0.204126 0.262327
v 0.0298276 0.208196 0.262327
l 773 774
v 0.0298276 0.208196 0.262327
v 0.0319271 0.212698 0.262327
l 775 776
v 0.0319271 0.212698 0.262327
v 0.0332129 0.217497 0.262327
l 777 778
v 0.0332129 0.217497 0.262327
v 0.0336459 0.222446 0.262327
l 779 780
v 0.0336459 0.222446 0.262327
v 0.0332129 0.227395 0.262327
l 781 782
v 0.0332129 0.227395 0.262327
v 0.0319271 0.232193 0.262327
l 783 784
v 0.0319271 0.232193 0.262327
v 0.0298276 0.236696 0.262327
l 785 786
v 0.0298276 0.236696 0.262327
v 0.0269782 0.240765 0.262327
l 787 788
v 0.0269782 0.240765 0.262327
v 0.0234653 0.244278 0.262327
l 789 790
v 0.337064 0.203646 1.09392
v 0.336642 0.20388 1.09415
l 791 792
v 0.336642 0.20388 1.09415
v 0.335407 0.204684 1.09496
l 793 794
v 0.335407 0.204684 1.09496
v 0.334641 0.205284 1.09556
l 795 796
v 0.334641 0.205284 1.09556
v 0.333791 0.20606 1.09633
l 797 798
v 0.341215 0.202213 1.09249
v 0.340406 0.202381 1.09265
l 799 800
v 0.340406 0.202381 1.09265
v 0.33886 0.202845 1.09312
l 801 802
v 0.33886 0.202845 1.09312
v 0.338732 0.202892 1.09317
l 803 804
v 0.338732 0.202892 1.09317
v 0.337064 0.203646 1.09392
l 805 806
v 0.344807 0.202048 1.09232
v 0.34365 0.202 1.09227
l 807 808
v 0.34365 0.202 1.09227
v 0.342094 0.202087 1.09236
l 809 810
v 0.342094 0.202087 1.09236
v 0.341215 0.202213 1.09249
l 811 812
v 0.348442 0.202846 1.09312
v 0.348247 0.202776 1.09305
l 813 814
v 0.348247 0.202776 1.09305
v 0.346482 0.202289 1.09256
l 815 816
v 0.346482 0.202289 1.09256
v 0.346084 0.202213 1.09249
l 817 818
v 0.346084 0.202213 1.09249
v 0.344807 0.202048 1.09232
l 819 820
v 0.34989 0.203467 1.09374
v 0.348442 0.202846 1.09312
l 821 822
v 0.35066 0.203882 1.09415
v 0.34989 0.203467 1.09374
l 823 824
v 0.351564 0.204451 1.09473
v 0.35066 0.203882 1.09415
l 825 826
v 0.352659 0.205284 1.09556
v 0.351564 0.204451 1.09473
l 827 828
v 0.353234 0.205795 1.09607
v 0.352659 0.205284 1.09556
l 829 830
v 0.34965 0.226392 1.14027
v 0.351364 0.225193 1.14027
l 831 832
v 0.347754 0.227276 1.14027
v 0.34965 0.226392 1.14027
l 833 834
v 0.345734 0.227818 1.14027
v 0.347754 0.227276 1.14027
l 835 836
v 0.34365 0.228 1.14027
v 0.345734 0.227818 1.14027
l 837 838
v 0.341566 0.227818 1.14027
v 0.34365 0.228 1.14027
l 839 840
v 0.339546 0.227276 1.14027
v 0.341566 0.227818 1.14027
l 841 842
v 0.33765 0.226392 1.14027
v 0.339546 0.227276 1.14027
l 843 844
v 0.335937 0.225193 1.14027
v 0.33765 0.226392 1.14027
l 845 846
v 0.334458 0.223713 1.14027
v 0.335937 0.225193 1.14027
l 847 848
v 0.333258 0.222 1.14027
v 0.334458 0.223713 1.14027
l 849 850
v 0.332374 0.220104 1.14027
v 0.333258 0.222 1.14027
l 851 852
v 0.331832 0.218084 1.14027
v 0.332374 0.220104 1.14027
l 853 854
v 0.33165 0.216 1.14027
v 0.331832 0.218084 1.14027
l 855 856
v 0.355468 0.218084 1.14027
v 0.35565 0.216 1.14027
l 857 858
v 0.354926 0.220104 1.14027
v 0.355468 0.218084 1.14027
l 859 860
v 0.354042 0.222 1.14027
v 0.354926 0.220104 1.14027
l 861 862
v 0.352843 0.223713 1.14027
v 0.354042 0.222 1.14027
l 863 864
v 0.351364 0.225193 1.14027
v 0.352843 0.223713 1.14027
l 865 866
v 0.33765 0.226392 1.07227
v 0.335937 0.225193 1.07227
l 867 868
v 0.339546 0.227276 1.07227
v 0.33765 0.226392 1.07227
l 869 870
v 0.341566 0.227818 1.07227
v 0.339546 0.227276 1.07227
l 871 872
v 0.34365 0.228 1.07227
v 0.341566 0.227818 1.07227
l 873 874
v 0.345734 0.227818 1.07227
v 0.34365 0.228 1.07227
l 875 876
v 0.347754 0.227276 1.07227
v 0.345734 0.227818 1.07227
l 877 878
v 0.34965 0.226392 1.07227
v 0.347754 0.227276 1.07227
l 879 880
v 0.351364 0.225193 1.07227
v 0.34965 0.226392 1.07227
l 881 882
v 0.352843 0.223713 1.07227
v 0.351364 0.225193 1.07227
l 883 884
v 0.354042 0.222 1.07227
v 0.352843 0.223713 1.07227
l 885 886
v 0.354926 0.220104 1.07227
v 0.354042 0.222 1.07227
l 887 888
v 0.355468 0.218084 1.07227
v 0.354926 0.220104 1.07227
l 889 890
v 0.35565 0.216 1.07227
v 0.355468 0.218084 1.07227
l 891 892
v 0.331832 0.218084 1.07227
v 0.33165 0.216 1.07227
l 893 894
v 0.332374 0.220104 1.07227
v 0.331832 0.218084 1.07227
l 895 896
v 0.333258 0.222 1.07227
v 0.332374 0.220104 1.07227
l 897 898
v 0.334458 0.223713 1.07227
v 0.333258 0.222 1.07227
l 899 900
v 0.335937 0.225193 1.07227
v 0.334458 0.223713 1.07227
l 901 902
v 0.339054 0.202776 1.1195
v 0.338858 0.202846 1.11943
l 903 904
v 0.334641 0.205284 1.11699
v 0.334066 0.205795 1.11648
l 905 906
v 0.338858 0.202846 1.11943
v 0.33741 0.203467 1.11881
l 907 908
v 0.33741 0.203467 1.11881
v 0.33664 0.203882 1.11839
l 909 910
v 0.33664 0.203882 1.11839
v 0.335737 0.204451 1.11782
l 911 912
v 0.335737 0.204451 1.11782
v 0.334641 0.205284 1.11699
l 913 914
v 0.34365 0.202 1.12027
v 0.342494 0.202048 1.12023
l 915 916
v 0.342494 0.202048 1.12023
v 0.341217 0.202213 1.12006
l 917 918
v 0.341217 0.202213 1.12006
v 0.340818 0.202289 1.11998
l 919 920
v 0.340818 0.202289 1.11998
v 0.339054 0.202776 1.1195
l 921 922
v 0.347114 0.167 1.10427
v 0.346714 0.167 1.1037
l 923 924
v 0.347409 0.167 1.10491
v 0.347114 0.167 1.10427
l 925 926
v 0.347589 0.167 1.10558
v 0.347409 0.167 1.10491
l 927 928
v 0.34765 0.167 1.10627
v 0.347589 0.167 1.10558
l 929 930
v 0.347589 0.167 1.10697
v 0.34765 0.167 1.10627
l 931 932
v 0.347409 0.167 1.10764
v 0.347589 0.167 1.10697
l 933 934
v 0.347114 0.167 1.10827
v 0.347409 0.167 1.10764
l 935 936
v 0.346714 0.167 1.10884
v 0.347114 0.167 1.10827
l 937 938
v 0.346221 0.167 1.10934
v 0.346714 0.167 1.10884
l 939 940
v 0.34565 0.167 1.10974
v 0.346221 0.167 1.10934
l 941 942
v 0.345018 0.167 1.11003
v 0.34565 0.167 1.10974
l 943 944
v 0.344345 0.167 1.11021
v 0.345018 0.167 1.11003
l 945 946
v 0.34365 0.167 1.11027
v 0.344345 0.167 1.11021
l 947 948
v 0.344345 0.167 1.10233
v 0.34365 0.167 1.10227
l 949 950
v 0.345018 0.167 1.10251
v 0.344345 0.167 1.10233
l 951 952
v 0.34565 0.167 1.10281
v 0.345018 0.167 1.10251
l 953 954
v 0.346221 0.167 1.10321
v 0.34565 0.167 1.10281
l 955 956
v 0.346714 0.167 1.1037
v 0.346221 0.167 1.10321
l 957 958
v 0.346714 0.018 1.10884
v 0.346221 0.018 1.10934
l 959 960
v 0.347114 0.018 1.10827
v 0.346714 0.018 1.10884
l 961 962
v 0.347409 0.018 1.10764
v 0.347114 0.018 1.10827
l 963 964
v 0.347589 0.018 1.10697
v 0.347409 0.018 1.10764
l 965 966
v 0.34765 0.018 1.10627
v 0.347589 0.018 1.10697
l 967 968
v 0.347589 0.018 1.10558
v 0.34765 0.018 1.10627
l 969 970
v 0.347409 0.018 1.10491
v 0.347589 0.018 1.10558
l 971 972
v 0.347114 0.018 1.10427
v 0.347409 0.018 1.10491
l 973 974
v 0.346714 0.018 1.1037
v 0.347114 0.018 1.10427
l 975 976
v 0.346221 0.018 1.10321
v 0.346714 0.018 1.1037
l 977 978
v 0.34565 0.018 1.10281
v 0.346221 0.018 1.10321
l 979 980
v 0.345018 0.018 1.10251
v 0.34565 0.018 1.10281
l 981 982
v 0.344345 0.018 1.10233
v 0.345018 0.018 1.10251
l 983 984
v 0.34365 0.018 1.10227
v 0.344345 0.018 1.10233
l 985 986
v 0.344345 0.018 1.11021
v 0.34365 0.018 1.11027
l 987 988
v 0.345018 0.018 1.11003
v 0.344345 0.018 1.11021
l 989 990
v 0.34565 0.018 1.10974
v 0.345018 0.018 1.11003
l 991 992
v 0.346221 0.018 1.10934
v 0.34565 0.018 1.10974
l 993 994
v 0.350236 0.203646 0.184741
v 0.350658 0.20388 0.184507
l 995 996
v 0.350658 0.20388 0.184507
v 0.351893 0.204684 0.183703
l 997 998
v 0.351893 0.204684 0.183703
v 0.35266 0.205284 0.183102
l 999 1000
v 0.35266 0.205284 0.183102
v 0.353509 0.20606 0.182327
l 1001 1002
v 0.346085 0.202213 0.186173
v 0.346895 0.202381 0.186006
l 1003 1004
v 0.346895 0.202381 0.186006
v 0.34844 0.202845 0.185542
l 1005 1006
v 0.34844 0.202845 0.185542
v 0.348568 0.202892 0.185494
l 1007 1008
v 0.348568 0.202892 0.185494
v 0.350236 0.203646 0.184741
l 1009 1010
v 0.342494 0.202048 0.186339
v 0.34365 0.202 0.186387
l 1011 1012
v 0.34365 0.202 0.186387
v 0.345206 0.202087 0.1863
l 1013 1014
v 0.345206 0.202087 0.1863
v 0.346085 0.202213 0.186173
l 1015 1016
v 0.338858 0.202846 0.185541
v 0.339054 0.202776 0.185611
l 1017 1018
v 0.339054 0.202776 0.185611
v 0.340818 0.202289 0.186097
l 1019 1020
v 0.340818 0.202289 0.186097
v 0.341217 0.202213 0.186174
l 1021 1022
v 0.341217 0.202213 0.186174
v 0.342494 0.202048 0.186339
l 1023 1024
v 0.33741 0.203467 0.184919
v 0.338858 0.202846 0.185541
l 1025 1026
v 0.33664 0.203882 0.184505
v 0.33741 0.203467 0.184919
l 1027 1028
v 0.335737 0.204451 0.183935
v 0.33664 0.203882 0.184505
l 1029 1030
v 0.334641 0.205284 0.183103
v 0.335737 0.204451 0.183935
l 1031 1032
v 0.334066 0.205795 0.182592
v 0.334641 0.205284 0.183103
l 1033 1034
v 0.337646 0.226148 0.138387
v 0.335932 0.224948 0.138387
l 1035 1036
v 0.339542 0.227032 0.138387
v 0.337646 0.226148 0.138387
l 1037 1038
v 0.341562 0.227573 0.138387
v 0.339542 0.227032 0.138387
l 1039 1040
v 0.343646 0.227756 0.138387
v 0.341562 0.227573 0.138387
l 1041 1042
v 0.34573 0.227573 0.138387
v 0.343646 0.227756 0.138387
l 1043 1044
v 0.34775 0.227032 0.138387
v 0.34573 0.227573 0.138387
l 1045 1046
v 0.349646 0.226148 0.138387
v 0.34775 0.227032 0.138387
l 1047 1048
v 0.351359 0.224948 0.138387
v 0.349646 0.226148 0.138387
l 1049 1050
v 0.352838 0.223469 0.138387
v 0.351359 0.224948 0.138387
l 1051 1052
v 0.354038 0.221756 0.138387
v 0.352838 0.223469 0.138387
l 1053 1054
v 0.354922 0.21986 0.138387
v 0.354038 0.221756 0.138387
l 1055 1056
v 0.355464 0.217839 0.138387
v 0.354922 0.21986 0.138387
l 1057 1058
v 0.355646 0.215756 0.138387
v 0.355464 0.217839 0.138387
l 1059 1060
v 0.331828 0.217839 0.138387
v 0.331646 0.215756 0.138387
l 1061 1062
v 0.33237 0.21986 0.138387
v 0.331828 0.217839 0.138387
l 1063 1064
v 0.333254 0.221756 0.138387
v 0.33237 0.21986 0.138387
l 1065 1066
v 0.334453 0.223469 0.138387
v 0.333254 0.221756 0.138387
l 1067 1068
v 0.335932 0.224948 0.138387
v 0.334453 0.223469 0.138387
l 1069 1070
v 0.331646 0.215756 0.206387
v 0.331647 0.215944 0.206387
l 1071 1072
v 0.331647 0.215944 0.206387
v 0.331858 0.218004 0.206387
l 1073 1074
v 0.331858 0.218004 0.206387
v 0.332421 0.219997 0.206387
l 1075 1076
v 0.332421 0.219997 0.206387
v 0.333317 0.221864 0.206387
l 1077 1078
v 0.333317 0.221864 0.206387
v 0.334521 0.223549 0.206387
l 1079 1080
v 0.334521 0.223549 0.206387
v 0.335997 0.225002 0.206387
l 1081 1082
v 0.335997 0.225002 0.206387
v 0.3377 0.226179 0.206387
l 1083 1084
v 0.3377 0.226179 0.206387
v 0.339581 0.227046 0.206387
l 1085 1086
v 0.339581 0.227046 0.206387
v 0.341583 0.227577 0.206387
l 1087 1088
v 0.341583 0.227577 0.206387
v 0.343646 0.227756 0.206387
l 1089 1090
v 0.343646 0.227756 0.206387
v 0.345709 0.227577 0.206387
l 1091 1092
v 0.345709 0.227577 0.206387
v 0.347711 0.227046 0.206387
l 1093 1094
v 0.347711 0.227046 0.206387
v 0.349591 0.226179 0.206387
l 1095 1096
v 0.349591 0.226179 0.206387
v 0.351295 0.225002 0.206387
l 1097 1098
v 0.351295 0.225002 0.206387
v 0.352771 0.223549 0.206387
l 1099 1100
v 0.352771 0.223549 0.206387
v 0.353975 0.221864 0.206387
l 1101 1102
v 0.353975 0.221864 0.206387
v 0.354871 0.219997 0.206387
l 1103 1104
v 0.354871 0.219997 0.206387
v 0.355433 0.218004 0.206387
l 1105 1106
v 0.355433 0.218004 0.206387
v 0.355644 0.215944 0.206387
l 1107 1108
v 0.355644 0.215944 0.206387
v 0.355646 0.215756 0.206387
l 1109 1110
v 0.342094 0.202087 0.158474
v 0.34365 0.202 0.158387
l 1111 1112
v 0.341215 0.202213 0.1586
v 0.342094 0.202087 0.158474
l 1113 1114
v 0.340406 0.202381 0.158768
v 0.341215 0.202213 0.1586
l 1115 1116
v 0.33886 0.202845 0.159232
v 0.340406 0.202381 0.158768
l 1117 1118
v 0.338732 0.202892 0.159279
v 0.33886 0.202845 0.159232
l 1119 1120
v 0.337064 0.203646 0.160033
v 0.338732 0.202892 0.159279
l 1121 1122
v 0.335407 0.204684 0.161071
v 0.336642 0.20388 0.160267
l 1123 1124
v 0.336642 0.20388 0.160267
v 0.337064 0.203646 0.160033
l 1125 1126
v 0.333791 0.20606 0.162447
v 0.334641 0.205284 0.161671
l 1127 1128
v 0.334641 0.205284 0.161671
v 0.335407 0.204684 0.161071
l 1129 1130
v 0.345018 0.167 0.176146
v 0.34565 0.167 0.175851
l 1131 1132
v 0.344345 0.167 0.176326
v 0.345018 0.167 0.176146
l 1133 1134
v 0.34365 0.167 0.176387
v 0.344345 0.167 0.176326
l 1135 1136
v 0.344345 0.167 0.168448
v 0.34365 0.167 0.168387
l 1137 1138
v 0.345018 0.167 0.168628
v 0.344345 0.167 0.168448
l 1139 1140
v 0.34565 0.167 0.168923
v 0.345018 0.167 0.168628
l 1141 1142
v 0.346221 0.167 0.169323
v 0.34565 0.167 0.168923
l 1143 1144
v 0.346714 0.167 0.169816
v 0.346221 0.167 0.169323
l 1145 1146
v 0.347114 0.167 0.170387
v 0.346714 0.167 0.169816
l 1147 1148
v 0.347409 0.167 0.171019
v 0.347114 0.167 0.170387
l 1149 1150
v 0.347589 0.167 0.171692
v 0.347409 0.167 0.171019
l 1151 1152
v 0.34765 0.167 0.172387
v 0.347589 0.167 0.171692
l 1153 1154
v 0.347589 0.167 0.173081
v 0.34765 0.167 0.172387
l 1155 1156
v 0.347409 0.167 0.173755
v 0.347589 0.167 0.173081
l 1157 1158
v 0.347114 0.167 0.174387
v 0.347409 0.167 0.173755
l 1159 1160
v 0.346714 0.167 0.174958
v 0.347114 0.167 0.174387
l 1161 1162
v 0.346221 0.167 0.175451
v 0.346714 0.167 0.174958
l 1163 1164
v 0.34565 0.167 0.175851
v 0.346221 0.167 0.175451
l 1165 1166
v 0.345018 0.018 0.168628
v 0.34565 0.018 0.168923
l 1167 1168
v 0.344345 0.018 0.168448
v 0.345018 0.018 0.168628
l 1169 1170
v 0.34365 0.018 0.168387
v 0.344345 0.018 0.168448
l 1171 1172
v 0.344345 0.018 0.176326
v 0.34365 0.018 0.176387
l 1173 1174
v 0.345018 0.018 0.176146
v 0.344345 0.018 0.176326
l 1175 1176
v 0.34565 0.018 0.175851
v 0.345018 0.018 0.176146
l 1177 1178
v 0.346221 0.018 0.175451
v 0.34565 0.018 0.175851
l 1179 1180
v 0.346714 0.018 0.174958
v 0.346221 0.018 0.175451
l 1181 1182
v 0.347114 0.018 0.174387
v 0.346714 0.018 0.174958
l 1183 1184
v 0.347409 0.018 0.173755
v 0.347114 0.018 0.174387
l 1185 1186
v 0.347589 0.018 0.173081
v 0.347409 0.018 0.173755
l 1187 1188
v 0.34765 0.018 0.172387
v 0.347589 0.018 0.173081
l 1189 1190
v 0.347589 0.018 0.171692
v 0.34765 0.018 0.172387
l 1191 1192
v 0.347409 0.018 0.171019
v 0.347589 0.018 0.171692
l 1193 1194
v 0.347114 0.018 0.170387
v 0.347409 0.018 0.171019
l 1195 1196
v 0.346714 0.018 0.169816
v 0.347114 0.018 0.170387
l 1197 1198
v 0.346221 0.018 0.169323
v 0.346714 0.018 0.169816
l 1199 1200
v 0.34565 0.018 0.168923
v 0.346221 0.018 0.169323
l 1201 1202
v 0.33765 0.226392 1.15727
v 0.335937 0.225193 1.15727
l 1203 1204
v 0.339546 0.227276 1.15727
v 0.33765 0.226392 1.15727
l 1205 1206
v 0.341566 0.227818 1.15727
v 0.339546 0.227276 1.15727
l 1207 1208
v 0.34365 0.228 1.15727
v 0.341566 0.227818 1.15727
l 1209 1210
v 0.345734 0.227818 1.15727
v 0.34365 0.228 1.15727
l 1211 1212
v 0.347754 0.227276 1.15727
v 0.345734 0.227818 1.15727
l 1213 1214
v 0.34965 0.226392 1.15727
v 0.347754 0.227276 1.15727
l 1215 1216
v 0.351364 0.225193 1.15727
v 0.34965 0.226392 1.15727
l 1217 1218
v 0.352843 0.223713 1.15727
v 0.351364 0.225193 1.15727
l 1219 1220
v 0.354042 0.222 1.15727
v 0.352843 0.223713 1.15727
l 1221 1222
v 0.354926 0.220104 1.15727
v 0.354042 0.222 1.15727
l 1223 1224
v 0.355468 0.218084 1.15727
v 0.354926 0.220104 1.15727
l 1225 1226
v 0.35565 0.216 1.15727
v 0.355468 0.218084 1.15727
l 1227 1228
v 0.331832 0.218084 1.15727
v 0.33165 0.216 1.15727
l 1229 1230
v 0.332374 0.220104 1.15727
v 0.331832 0.218084 1.15727
l 1231 1232
v 0.333258 0.222 1.15727
v 0.332374 0.220104 1.15727
l 1233 1234
v 0.334458 0.223713 1.15727
v 0.333258 0.222 1.15727
l 1235 1236
v 0.335937 0.225193 1.15727
v 0.334458 0.223713 1.15727
l 1237 1238
v 0.329669 0.216733 1.19627
v 0.32965 0.216 1.19627
l 1239 1240
v 0.372658 0.234507 1.24927
v 0.370795 0.234605 1.26296
l 1241 1242
v 0.367845 0.234759 1.23103
v 0.372658 0.234507 1.24927
l 1243 1244
v 0.332925 0.224999 1.19627
v 0.331526 0.223 1.19627
l 1245 1246
v 0.35765 0.216 1.19627
v 0.357437 0.218431 1.19627
l 1247 1248
v 0.357437 0.218431 1.19627
v 0.356806 0.220788 1.19627
l 1249 1250
v 0.356806 0.220788 1.19627
v 0.355774 0.223 1.19627
l 1251 1252
v 0.355774 0.223 1.19627
v 0.354375 0.224999 1.19627
l 1253 1254
v 0.354375 0.224999 1.19627
v 0.352649 0.226725 1.19627
l 1255 1256
v 0.352649 0.226725 1.19627
v 0.35065 0.228124 1.19627
l 1257 1258
v 0.331526 0.223 1.19627
v 0.330494 0.220788 1.19627
l 1259 1260
v 0.330494 0.220788 1.19627
v 0.329863 0.218431 1.19627
l 1261 1262
v 0.329863 0.218431 1.19627
v 0.329669 0.216733 1.19627
l 1263 1264
v 0.341219 0.229787 1.19627
v 0.338862 0.229156 1.19627
l 1265 1266
v 0.338862 0.229156 1.19627
v 0.33665 0.228124 1.19627
l 1267 1268
v 0.33665 0.228124 1.19627
v 0.334651 0.226725 1.19627
l 1269 1270
v 0.334651 0.226725 1.19627
v 0.332925 0.224999 1.19627
l 1271 1272
v 0.35065 0.228124 1.19627
v 0.348438 0.229156 1.19627
l 1273 1274
v 0.348438 0.229156 1.19627
v 0.346081 0.229787 1.19627
l 1275 1276
v 0.346081 0.229787 1.19627
v 0.34365 0.23 1.19627
l 1277 1278
v 0.34365 0.23 1.19627
v 0.341219 0.229787 1.19627
l 1279 1280
v 0.316735 0.237438 1.24927
v 0.321548 0.237186 1.23103
l 1281 1282
v 0.318599 0.23734 1.26296
v 0.316735 0.237438 1.24927
l 1283 1284
v 0.367264 0.23479 1.23031
v 0.367845 0.234759 1.23103
l 1285 1286
v 0.329967 0.236744 1.22373
v 0.334621 0.236501 1.22155
l 1287 1288
v 0.354773 0.235445 1.22155
v 0.359427 0.235201 1.22373
l 1289 1290
v 0.359427 0.235201 1.22373
v 0.363633 0.23498 1.22668
l 1291 1292
v 0.363633 0.23498 1.22668
v 0.367264 0.23479 1.23031
l 1293 1294
v 0.321548 0.237186 1.23103
v 0.322129 0.237155 1.23031
l 1295 1296
v 0.322129 0.237155 1.23031
v 0.325761 0.236965 1.22668
l 1297 1298
v 0.325761 0.236965 1.22668
v 0.329967 0.236744 1.22373
l 1299 1300
v 0.334621 0.236501 1.22155
v 0.339581 0.236241 1.22022
l 1301 1302
v 0.339581 0.236241 1.22022
v 0.344697 0.235973 1.21977
l 1303 1304
v 0.344697 0.235973 1.21977
v 0.349813 0.235704 1.22022
l 1305 1306
v 0.349813 0.235704 1.22022
v 0.354773 0.235445 1.22155
l 1307 1308
v 0.364323 0.234944 1.27127
v 0.325071 0.237001 1.27127
l 1309 1310
v 0.357631 0.215267 0.0825
v 0.35765 0.216 0.0825
l 1311 1312
v 0.357437 0.213569 0.0825
v 0.357631 0.215267 0.0825
l 1313 1314
v 0.356806 0.211212 0.0825
v 0.357437 0.213569 0.0825
l 1315 1316
v 0.355774 0.209 0.0825
v 0.356806 0.211212 0.0825
l 1317 1318
v 0.354375 0.207001 0.0825
v 0.355774 0.209 0.0825
l 1319 1320
v 0.352649 0.205275 0.0825
v 0.354375 0.207001 0.0825
l 1321 1322
v 0.35065 0.203876 0.0825
v 0.352649 0.205275 0.0825
l 1323 1324
v 0.348438 0.202844 0.0825
v 0.35065 0.203876 0.0825
l 1325 1326
v 0.346081 0.202213 0.0825
v 0.348438 0.202844 0.0825
l 1327 1328
v 0.34365 0.202 0.0825
v 0.346081 0.202213 0.0825
l 1329 1330
v 0.341219 0.202213 0.0825
v 0.34365 0.202 0.0825
l 1331 1332
v 0.338862 0.202844 0.0825
v 0.341219 0.202213 0.0825
l 1333 1334
v 0.33665 0.203876 0.0825
v 0.338862 0.202844 0.0825
l 1335 1336
v 0.334651 0.205275 0.0825
v 0.33665 0.203876 0.0825
l 1337 1338
v 0.332925 0.207001 0.0825
v 0.334651 0.205275 0.0825
l 1339 1340
v 0.331526 0.209 0.0825
v 0.332925 0.207001 0.0825
l 1341 1342
v 0.330494 0.211212 0.0825
v 0.331526 0.209 0.0825
l 1343 1344
v 0.329863 0.213569 0.0825
v 0.330494 0.211212 0.0825
l 1345 1346
v 0.32965 0.216 0.0825
v 0.329863 0.213569 0.0825
l 1347 1348
v 0.355464 0.217839 0.1215
v 0.355646 0.215756 0.1215
l 1349 1350
v 0.354922 0.21986 0.1215
v 0.355464 0.217839 0.1215
l 1351 1352
v 0.354038 0.221756 0.1215
v 0.354922 0.21986 0.1215
l 1353 1354
v 0.352838 0.223469 0.1215
v 0.354038 0.221756 0.1215
l 1355 1356
v 0.351359 0.224948 0.1215
v 0.352838 0.223469 0.1215
l 1357 1358
v 0.349646 0.226148 0.1215
v 0.351359 0.224948 0.1215
l 1359 1360
v 0.34775 0.227032 0.1215
v 0.349646 0.226148 0.1215
l 1361 1362
v 0.34573 0.227573 0.1215
v 0.34775 0.227032 0.1215
l 1363 1364
v 0.343646 0.227756 0.1215
v 0.34573 0.227573 0.1215
l 1365 1366
v 0.341562 0.227573 0.1215
v 0.343646 0.227756 0.1215
l 1367 1368
v 0.339542 0.227032 0.1215
v 0.341562 0.227573 0.1215
l 1369 1370
v 0.337646 0.226148 0.1215
v 0.339542 0.227032 0.1215
l 1371 1372
v 0.335932 0.224948 0.1215
v 0.337646 0.226148 0.1215
l 1373 1374
v 0.334453 0.223469 0.1215
v 0.335932 0.224948 0.1215
l 1375 1376
v 0.333254 0.221756 0.1215
v 0.334453 0.223469 0.1215
l 1377 1378
v 0.33237 0.21986 0.1215
v 0.333254 0.221756 0.1215
l 1379 1380
v 0.331828 0.217839 0.1215
v 0.33237 0.21986 0.1215
l 1381 1382
v 0.331646 0.215756 0.1215
v 0.331828 0.217839 0.1215
l 1383 1384
v 0.32965 0.216 0.0825
v 0.329669 0.216733 0.0825
l 1385 1386
v 0.370795 0.234605 0.0158154
v 0.372658 0.234507 0.0295
l 1387 1388
v 0.316735 0.237438 0.0295
v 0.318599 0.23734 0.0158154
l 1389 1390
v 0.321548 0.237186 0.0477463
v 0.316735 0.237438 0.0295
l 1391 1392
v 0.331526 0.223 0.0825
v 0.332925 0.224999 0.0825
l 1393 1394
v 0.354375 0.224999 0.0825
v 0.355774 0.223 0.0825
l 1395 1396
v 0.329669 0.216733 0.0825
v 0.329863 0.218431 0.0825
l 1397 1398
v 0.329863 0.218431 0.0825
v 0.330494 0.220788 0.0825
l 1399 1400
v 0.330494 0.220788 0.0825
v 0.331526 0.223 0.0825
l 1401 1402
v 0.355774 0.223 0.0825
v 0.356806 0.220788 0.0825
l 1403 1404
v 0.356806 0.220788 0.0825
v 0.357437 0.218431 0.0825
l 1405 1406
v 0.357437 0.218431 0.0825
v 0.35765 0.216 0.0825
l 1407 1408
v 0.332925 0.224999 0.0825
v 0.334651 0.226725 0.0825
l 1409 1410
v 0.334651 0.226725 0.0825
v 0.33665 0.228124 0.0825
l 1411 1412
v 0.33665 0.228124 0.0825
v 0.338862 0.229156 0.0825
l 1413 1414
v 0.348438 0.229156 0.0825
v 0.35065 0.228124 0.0825
l 1415 1416
v 0.35065 0.228124 0.0825
v 0.352649 0.226725 0.0825
l 1417 1418
v 0.352649 0.226725 0.0825
v 0.354375 0.224999 0.0825
l 1419 1420
v 0.338862 0.229156 0.0825
v 0.341219 0.229787 0.0825
l 1421 1422
v 0.341219 0.229787 0.0825
v 0.34365 0.23 0.0825
l 1423 1424
v 0.34365 0.23 0.0825
v 0.346081 0.229787 0.0825
l 1425 1426
v 0.346081 0.229787 0.0825
v 0.348438 0.229156 0.0825
l 1427 1428
v 0.372658 0.234507 0.0295
v 0.367845 0.234759 0.0477463
l 1429 1430
v 0.339581 0.236241 0.0585519
v 0.334621 0.236501 0.0572209
l 1431 1432
v 0.334621 0.236501 0.0572209
v 0.329967 0.236744 0.0550478
l 1433 1434
v 0.367845 0.234759 0.0477463
v 0.367264 0.23479 0.0484623
l 1435 1436
v 0.367264 0.23479 0.0484623
v 0.363633 0.23498 0.0520983
l 1437 1438
v 0.363633 0.23498 0.0520983
v 0.359427 0.235201 0.0550478
l 1439 1440
v 0.329967 0.236744 0.0550478
v 0.325761 0.236965 0.0520983
l 1441 1442
v 0.325761 0.236965 0.0520983
v 0.322129 0.237155 0.0484623
l 1443 1444
v 0.322129 0.237155 0.0484623
v 0.321548 0.237186 0.0477463
l 1445 1446
v 0.359427 0.235201 0.0550478
v 0.354773 0.235445 0.0572209
l 1447 1448
v 0.354773 0.235445 0.0572209
v 0.349813 0.235704 0.0585519
l 1449 1450
v 0.349813 0.235704 0.0585519
v 0.344697 0.235973 0.059
l 1451 1452
v 0.344697 0.235973 0.059
v 0.339581 0.236241 0.0585519
l 1453 1454
v 0.325071 0.237001 0.00750005
v 0.364323 0.234944 0.00750005
l 1455 1456
v 0.350236 0.203646 1.11863
v 0.350658 0.20388 1.11839
l 1457 1458
v 0.350658 0.20388 1.11839
v 0.351893 0.204684 1.11759
l 1459 1460
v 0.351893 0.204684 1.11759
v 0.35266 0.205284 1.11699
l 1461 1462
v 0.35266 0.205284 1.11699
v 0.353509 0.20606 1.11621
l 1463 1464
v 0.346085 0.202213 1.12006
v 0.346895 0.202381 1.11989
l 1465 1466
v 0.346895 0.202381 1.11989
v 0.34844 0.202845 1.11943
l 1467 1468
v 0.34844 0.202845 1.11943
v 0.348568 0.202892 1.11938
l 1469 1470
v 0.348568 0.202892 1.11938
v 0.350236 0.203646 1.11863
l 1471 1472
v 0.34365 0.202 1.12027
v 0.345206 0.202087 1.12019
l 1473 1474
v 0.345206 0.202087 1.12019
v 0.346085 0.202213 1.12006
l 1475 1476
v 0.344807 0.202048 0.158435
v 0.34365 0.202 0.158387
l 1477 1478
v 0.348442 0.202846 0.159232
v 0.348247 0.202776 0.159163
l 1479 1480
v 0.348247 0.202776 0.159163
v 0.346482 0.202289 0.158676
l 1481 1482
v 0.346482 0.202289 0.158676
v 0.346084 0.202213 0.1586
l 1483 1484
v 0.346084 0.202213 0.1586
v 0.344807 0.202048 0.158435
l 1485 1486
v 0.34989 0.203467 0.159854
v 0.348442 0.202846 0.159232
l 1487 1488
v 0.35066 0.203882 0.160268
v 0.34989 0.203467 0.159854
l 1489 1490
v 0.351564 0.204451 0.160838
v 0.35066 0.203882 0.160268
l 1491 1492
v 0.352659 0.205284 0.161671
v 0.351564 0.204451 0.160838
l 1493 1494
v 0.353234 0.205795 0.162182
v 0.352659 0.205284 0.161671
l 1495 1496
